lab6_2_restart.sim/sim_1/behav/xsim/looper_pwm.vcd
$date
   Mon May  5 17:14:50 2025
$end
$version
  2022.2
$end
$timescale
  1ps
$end
$scope module tb_looper_pwm $end
$var reg 1 ! clk $end
$var reg 1 " rst_n $end
$var reg 8 # live_kc0 [7:0] $end
$var reg 8 $ live_kc1 [7:0] $end
$var reg 8 % live_kc2 [7:0] $end
$var reg 8 & live_kc3 [7:0] $end
$var reg 3 ' live_oct [2:0] $end
$var reg 8 ( loop_kc0 [7:0] $end
$var reg 8 ) loop_kc1 [7:0] $end
$var reg 8 * loop_kc2 [7:0] $end
$var reg 8 + loop_kc3 [7:0] $end
$var reg 3 , loop_oct [2:0] $end
$var reg 1 - pwm $end
$scope module u_looper $end
$var wire 1 . clk $end
$var wire 1 / rst_n $end
$var wire 8 0 live_kc0 [7:0] $end
$var wire 8 1 live_kc1 [7:0] $end
$var wire 8 2 live_kc2 [7:0] $end
$var wire 8 3 live_kc3 [7:0] $end
$var wire 3 4 live_oct [2:0] $end
$var reg 8 ( loop_kc0 [7:0] $end
$var reg 8 ) loop_kc1 [7:0] $end
$var reg 8 * loop_kc2 [7:0] $end
$var reg 8 + loop_kc3 [7:0] $end
$var reg 3 , loop_oct [2:0] $end
$var wire 1 5 hit_arm $end
$var wire 1 6 hit_stop $end
$var reg 1 7 prev_hit_arm $end
$var reg 1 8 prev_hit_stop $end
$var reg 3 9 prev_oct [2:0] $end
$var reg 8 : prev_kc0 [7:0] $end
$var reg 8 ; prev_kc1 [7:0] $end
$var reg 8 < prev_kc2 [7:0] $end
$var reg 8 = prev_kc3 [7:0] $end
$var wire 1 > state_changed $end
$var reg 2 ? state $end
$var reg 9 @ write_ptr [8:0] $end
$var reg 9 A read_ptr [8:0] $end
$var reg 30 B tick_ctr [29:0] $end
$var reg 65 C ev $end
$upscope $end
$scope module u_pwm $end
$var wire 1 D clk $end
$var wire 1 E rst_n $end
$var wire 8 F key0 [7:0] $end
$var wire 8 G key1 [7:0] $end
$var wire 8 H key2 [7:0] $end
$var wire 8 I key3 [7:0] $end
$var wire 8 J key4 [7:0] $end
$var wire 8 K key5 [7:0] $end
$var wire 8 L key6 [7:0] $end
$var wire 8 M key7 [7:0] $end
$var wire 8 N key8 [7:0] $end
$var wire 8 O key9 [7:0] $end
$var wire 8 P key10 [7:0] $end
$var wire 8 Q key11 [7:0] $end
$var wire 8 R key12 [7:0] $end
$var wire 8 S key13 [7:0] $end
$var wire 8 T key14 [7:0] $end
$var wire 8 U key15 [7:0] $end
$var wire 3 V octave0 [2:0] $end
$var wire 3 W octave1 [2:0] $end
$var wire 3 X octave2 [2:0] $end
$var wire 3 Y octave3 [2:0] $end
$var wire 3 Z octave4 [2:0] $end
$var wire 3 [ octave5 [2:0] $end
$var wire 3 \ octave6 [2:0] $end
$var wire 3 ] octave7 [2:0] $end
$var wire 3 ^ octave8 [2:0] $end
$var wire 3 _ octave9 [2:0] $end
$var wire 3 ` octave10 [2:0] $end
$var wire 3 a octave11 [2:0] $end
$var wire 3 b octave12 [2:0] $end
$var wire 3 c octave13 [2:0] $end
$var wire 3 d octave14 [2:0] $end
$var wire 3 e octave15 [2:0] $end
$var reg 1 - pwm_out $end
$var reg 5 f mix [4:0] $end
$var reg 10 g duty_raw [9:0] $end
$var reg 10 h pwm_cnt [9:0] $end
$scope begin Block160_5 $end
$scope begin Block171_6 $end
$var reg 32 i i [31:0] $end
$upscope $end
$upscope $end
$scope begin Block176_8 $end
$var reg 32 j i [31:0] $end
$upscope $end
$scope begin Block177_9 $end
$var reg 32 k i [31:0] $end
$upscope $end
$scope begin Block187_11 $end
$var reg 32 l i [31:0] $end
$upscope $end
$scope begin Block189_12 $end
$var reg 32 m i [31:0] $end
$upscope $end
$scope begin Block213_14 $end
$var reg 32 n i [31:0] $end
$upscope $end
$scope function decode $end
$var reg 32 o decode [31:0] $end
$var reg 8 p kc [7:0] $end
$var reg 3 q oct [2:0] $end
$var reg 6 r idx [5:0] $end
$var reg 32 s b [31:0] $end
$upscope $end
$upscope $end
$upscope $end
$enddefinitions $end
#0
$dumpvars
0!
0"
b0 #
b0 $
b0 %
b0 &
b11 '
b0 (
b0 )
b0 *
b0 +
b0 ,
0-
0.
0/
b0 0
b0 1
b0 2
b0 3
b11 4
05
06
07
08
b0 9
b0 :
b0 ;
b0 <
b0 =
1>
b0 ?
b0 @
b0 A
b0 B
bx C
0D
0E
b0 F
b0 G
b0 H
b0 I
b0 J
b0 K
b0 L
b0 M
b0 N
b0 O
b0 P
b0 Q
b0 R
b0 S
b0 T
b0 U
b0 V
b0 W
b0 X
b0 Y
b0 Z
b0 [
b0 \
b0 ]
b0 ^
b0 _
b0 `
b0 a
b0 b
b0 c
b0 d
b0 e
b0 f
b0 g
b0 h
b10000 i
b10000 j
b0 k
b10000 l
b0 m
b10000 n
b0 o
b0 p
b0 q
b111000 r
b0 s
$end
#5000
1!
1.
1D
b10000 j
b10000 l
#10000
0!
0.
0D
#15000
1!
1.
1D
b10000 j
b10000 l
#20000
0!
0.
0D
#25000
1!
1.
1D
b10000 j
b10000 l
#30000
0!
0.
0D
#35000
1!
1.
1D
b10000 j
b10000 l
#40000
0!
0.
0D
#45000
1!
1"
1.
1/
1D
1E
b1 h
b10000 k
b10000 m
#50000
0!
0.
0D
#55000
1!
1.
1D
b10 h
b10000 k
b10000 m
#60000
0!
0.
0D
#65000
1!
1.
1D
b11 h
b10000 k
b10000 m
#70000
0!
0.
0D
#75000
1!
1.
1D
b100 h
b10000 k
b10000 m
#80000
0!
0.
0D
#85000
1!
1.
1D
b101 h
b10000 k
b10000 m
#90000
0!
0.
0D
#95000
1!
1.
1D
b110 h
b10000 k
b10000 m
#100000
0!
0.
0D
#105000
1!
1.
1D
b111 h
b10000 k
b10000 m
#110000
0!
0.
0D
#115000
1!
1.
1D
b1000 h
b10000 k
b10000 m
#120000
0!
0.
0D
#125000
1!
1.
1D
b1001 h
b10000 k
b10000 m
#130000
0!
0.
0D
#135000
1!
1.
1D
b1010 h
b10000 k
b10000 m
#140000
0!
0.
0D
#145000
1!
1.
1D
b1011 h
b10000 k
b10000 m
#150000
0!
0.
0D
#155000
1!
1.
1D
b1100 h
b10000 k
b10000 m
#160000
0!
0.
0D
#165000
1!
1.
1D
b1101 h
b10000 k
b10000 m
#170000
0!
0.
0D
#175000
1!
1.
1D
b1110 h
b10000 k
b10000 m
#180000
0!
0.
0D
#185000
1!
1.
1D
b1111 h
b10000 k
b10000 m
#190000
0!
0.
0D
#195000
1!
1.
1D
b10000 h
b10000 k
b10000 m
#200000
0!
0.
0D
#205000
1!
1.
1D
b10001 h
b10000 k
b10000 m
#210000
0!
0.
0D
#215000
1!
1.
1D
b10010 h
b10000 k
b10000 m
#220000
0!
0.
0D
#225000
1!
1.
1D
b10011 h
b10000 k
b10000 m
#230000
0!
0.
0D
#235000
1!
1.
1D
b10100 h
b10000 k
b10000 m
#240000
0!
0.
0D
#245000
1!
1.
1D
b10101 h
b10000 k
b10000 m
#250000
0!
0.
0D
#255000
1!
1.
1D
b10110 h
b10000 k
b10000 m
#260000
0!
0.
0D
#265000
1!
1.
1D
b10111 h
b10000 k
b10000 m
#270000
0!
0.
0D
#275000
1!
1.
1D
b11000 h
b10000 k
b10000 m
#280000
0!
0.
0D
#285000
1!
1.
1D
b11001 h
b10000 k
b10000 m
#290000
0!
0.
0D
#295000
1!
1.
1D
b11010 h
b10000 k
b10000 m
#300000
0!
0.
0D
#305000
1!
1.
1D
b11011 h
b10000 k
b10000 m
#310000
0!
0.
0D
#315000
1!
1.
1D
b11100 h
b10000 k
b10000 m
#320000
0!
0.
0D
#325000
1!
1.
1D
b11101 h
b10000 k
b10000 m
#330000
0!
0.
0D
#335000
1!
1.
1D
b11110 h
b10000 k
b10000 m
#340000
0!
0.
0D
#345000
1!
1.
1D
b11111 h
b10000 k
b10000 m
#350000
0!
0.
0D
#355000
1!
1.
1D
b100000 h
b10000 k
b10000 m
#360000
0!
0.
0D
#365000
1!
1.
1D
b100001 h
b10000 k
b10000 m
#370000
0!
0.
0D
#375000
1!
1.
1D
b100010 h
b10000 k
b10000 m
#380000
0!
0.
0D
#385000
1!
1.
1D
b100011 h
b10000 k
b10000 m
#390000
0!
0.
0D
#395000
1!
1.
1D
b100100 h
b10000 k
b10000 m
#400000
0!
0.
0D
#405000
1!
1.
1D
b100101 h
b10000 k
b10000 m
#410000
0!
0.
0D
#415000
1!
1.
1D
b100110 h
b10000 k
b10000 m
#420000
0!
0.
0D
#425000
1!
1.
1D
b100111 h
b10000 k
b10000 m
#430000
0!
0.
0D
#435000
1!
1.
1D
b101000 h
b10000 k
b10000 m
#440000
0!
0.
0D
#445000
1!
1.
1D
b101001 h
b10000 k
b10000 m
#450000
0!
0.
0D
#455000
1!
1.
1D
b101010 h
b10000 k
b10000 m
#460000
0!
0.
0D
#465000
1!
1.
1D
b101011 h
b10000 k
b10000 m
#470000
0!
0.
0D
#475000
1!
1.
1D
b101100 h
b10000 k
b10000 m
#480000
0!
0.
0D
#485000
1!
1.
1D
b101101 h
b10000 k
b10000 m
#490000
0!
0.
0D
#495000
1!
1.
1D
b101110 h
b10000 k
b10000 m
#500000
0!
0.
0D
#505000
1!
1.
1D
b101111 h
b10000 k
b10000 m
#510000
0!
0.
0D
#515000
1!
1.
1D
b110000 h
b10000 k
b10000 m
#520000
0!
0.
0D
#525000
1!
1.
1D
b110001 h
b10000 k
b10000 m
#530000
0!
0.
0D
#535000
1!
1.
1D
b110010 h
b10000 k
b10000 m
#540000
0!
0.
0D
#545000
1!
1.
1D
b110011 h
b10000 k
b10000 m
#550000
0!
0.
0D
#555000
1!
1.
1D
b110100 h
b10000 k
b10000 m
#560000
0!
0.
0D
#565000
1!
1.
1D
b110101 h
b10000 k
b10000 m
#570000
0!
0.
0D
#575000
1!
1.
1D
b110110 h
b10000 k
b10000 m
#580000
0!
0.
0D
#585000
1!
1.
1D
b110111 h
b10000 k
b10000 m
#590000
0!
0.
0D
#595000
1!
1.
1D
b111000 h
b10000 k
b10000 m
#600000
0!
0.
0D
#605000
1!
1.
1D
b111001 h
b10000 k
b10000 m
#610000
0!
0.
0D
#615000
1!
1.
1D
b111010 h
b10000 k
b10000 m
#620000
0!
0.
0D
#625000
1!
1.
1D
b111011 h
b10000 k
b10000 m
#630000
0!
0.
0D
#635000
1!
1.
1D
b111100 h
b10000 k
b10000 m
#640000
0!
0.
0D
#645000
1!
1.
1D
b111101 h
b10000 k
b10000 m
#650000
0!
0.
0D
#655000
1!
1.
1D
b111110 h
b10000 k
b10000 m
#660000
0!
0.
0D
#665000
1!
1.
1D
b111111 h
b10000 k
b10000 m
#670000
0!
0.
0D
#675000
1!
1.
1D
b1000000 h
b10000 k
b10000 m
#680000
0!
0.
0D
#685000
1!
1.
1D
b1000001 h
b10000 k
b10000 m
#690000
0!
0.
0D
#695000
1!
1.
1D
b1000010 h
b10000 k
b10000 m
#700000
0!
0.
0D
#705000
1!
1.
1D
b1000011 h
b10000 k
b10000 m
#710000
0!
0.
0D
#715000
1!
1.
1D
b1000100 h
b10000 k
b10000 m
#720000
0!
0.
0D
#725000
1!
1.
1D
b1000101 h
b10000 k
b10000 m
#730000
0!
0.
0D
#735000
1!
1.
1D
b1000110 h
b10000 k
b10000 m
#740000
0!
0.
0D
#745000
1!
1.
1D
b1000111 h
b10000 k
b10000 m
#750000
0!
0.
0D
#755000
1!
1.
1D
b1001000 h
b10000 k
b10000 m
#760000
0!
0.
0D
#765000
1!
1.
1D
b1001001 h
b10000 k
b10000 m
#770000
0!
0.
0D
#775000
1!
1.
1D
b1001010 h
b10000 k
b10000 m
#780000
0!
0.
0D
#785000
1!
1.
1D
b1001011 h
b10000 k
b10000 m
#790000
0!
0.
0D
#795000
1!
1.
1D
b1001100 h
b10000 k
b10000 m
#800000
0!
0.
0D
#805000
1!
1.
1D
b1001101 h
b10000 k
b10000 m
#810000
0!
0.
0D
#815000
1!
1.
1D
b1001110 h
b10000 k
b10000 m
#820000
0!
0.
0D
#825000
1!
1.
1D
b1001111 h
b10000 k
b10000 m
#830000
0!
0.
0D
#835000
1!
1.
1D
b1010000 h
b10000 k
b10000 m
#840000
0!
0.
0D
#845000
1!
1.
1D
b1010001 h
b10000 k
b10000 m
#850000
0!
0.
0D
#855000
1!
1.
1D
b1010010 h
b10000 k
b10000 m
#860000
0!
0.
0D
#865000
1!
1.
1D
b1010011 h
b10000 k
b10000 m
#870000
0!
0.
0D
#875000
1!
1.
1D
b1010100 h
b10000 k
b10000 m
#880000
0!
0.
0D
#885000
1!
1.
1D
b1010101 h
b10000 k
b10000 m
#890000
0!
0.
0D
#895000
1!
1.
1D
b1010110 h
b10000 k
b10000 m
#900000
0!
0.
0D
#905000
1!
1.
1D
b1010111 h
b10000 k
b10000 m
#910000
0!
0.
0D
#915000
1!
1.
1D
b1011000 h
b10000 k
b10000 m
#920000
0!
0.
0D
#925000
1!
1.
1D
b1011001 h
b10000 k
b10000 m
#930000
0!
0.
0D
#935000
1!
1.
1D
b1011010 h
b10000 k
b10000 m
#940000
0!
0.
0D
#945000
1!
1.
1D
b1011011 h
b10000 k
b10000 m
#950000
0!
0.
0D
#955000
1!
1.
1D
b1011100 h
b10000 k
b10000 m
#960000
0!
0.
0D
#965000
1!
1.
1D
b1011101 h
b10000 k
b10000 m
#970000
0!
0.
0D
#975000
1!
1.
1D
b1011110 h
b10000 k
b10000 m
#980000
0!
0.
0D
#985000
1!
1.
1D
b1011111 h
b10000 k
b10000 m
#990000
0!
0.
0D
#995000
1!
1.
1D
b1100000 h
b10000 k
b10000 m
#1000000
0!
0.
0D
#1005000
1!
1.
1D
b1100001 h
b10000 k
b10000 m
#1010000
0!
0.
0D
#1015000
1!
1.
1D
b1100010 h
b10000 k
b10000 m
#1020000
0!
0.
0D
#1025000
1!
1.
1D
b1100011 h
b10000 k
b10000 m
#1030000
0!
0.
0D
#1035000
1!
1.
1D
b1100100 h
b10000 k
b10000 m
#1040000
0!
0.
0D
#1045000
1!
1.
1D
b1100101 h
b10000 k
b10000 m
#1050000
0!
0.
0D
#1055000
1!
1.
1D
b1100110 h
b10000 k
b10000 m
#1060000
0!
0.
0D
#1065000
1!
1.
1D
b1100111 h
b10000 k
b10000 m
#1070000
0!
0.
0D
#1075000
1!
1.
1D
b1101000 h
b10000 k
b10000 m
#1080000
0!
0.
0D
#1085000
1!
1.
1D
b1101001 h
b10000 k
b10000 m
#1090000
0!
0.
0D
#1095000
1!
1.
1D
b1101010 h
b10000 k
b10000 m
#1100000
0!
0.
0D
#1105000
1!
1.
1D
b1101011 h
b10000 k
b10000 m
#1110000
0!
0.
0D
#1115000
1!
1.
1D
b1101100 h
b10000 k
b10000 m
#1120000
0!
0.
0D
#1125000
1!
1.
1D
b1101101 h
b10000 k
b10000 m
#1130000
0!
0.
0D
#1135000
1!
1.
1D
b1101110 h
b10000 k
b10000 m
#1140000
0!
0.
0D
#1145000
1!
1.
1D
b1101111 h
b10000 k
b10000 m
#1150000
0!
0.
0D
#1155000
1!
1.
1D
b1110000 h
b10000 k
b10000 m
#1160000
0!
0.
0D
#1165000
1!
1.
1D
b1110001 h
b10000 k
b10000 m
#1170000
0!
0.
0D
#1175000
1!
1.
1D
b1110010 h
b10000 k
b10000 m
#1180000
0!
0.
0D
#1185000
1!
1.
1D
b1110011 h
b10000 k
b10000 m
#1190000
0!
0.
0D
#1195000
1!
1.
1D
b1110100 h
b10000 k
b10000 m
#1200000
0!
0.
0D
#1205000
1!
1.
1D
b1110101 h
b10000 k
b10000 m
#1210000
0!
0.
0D
#1215000
1!
1.
1D
b1110110 h
b10000 k
b10000 m
#1220000
0!
0.
0D
#1225000
1!
1.
1D
b1110111 h
b10000 k
b10000 m
#1230000
0!
0.
0D
#1235000
1!
1.
1D
b1111000 h
b10000 k
b10000 m
#1240000
0!
0.
0D
#1245000
1!
1.
1D
b1111001 h
b10000 k
b10000 m
#1250000
0!
0.
0D
#1255000
1!
1.
1D
b1111010 h
b10000 k
b10000 m
#1260000
0!
0.
0D
#1265000
1!
1.
1D
b1111011 h
b10000 k
b10000 m
#1270000
0!
0.
0D
#1275000
1!
1.
1D
b1111100 h
b10000 k
b10000 m
#1280000
0!
0.
0D
#1285000
1!
1.
1D
b1111101 h
b10000 k
b10000 m
#1290000
0!
0.
0D
#1295000
1!
1.
1D
b1111110 h
b10000 k
b10000 m
#1300000
0!
0.
0D
#1305000
1!
1.
1D
b1111111 h
b10000 k
b10000 m
#1310000
0!
0.
0D
#1315000
1!
1.
1D
b10000000 h
b10000 k
b10000 m
#1320000
0!
0.
0D
#1325000
1!
1.
1D
b10000001 h
b10000 k
b10000 m
#1330000
0!
0.
0D
#1335000
1!
1.
1D
b10000010 h
b10000 k
b10000 m
#1340000
0!
0.
0D
#1345000
1!
1.
1D
b10000011 h
b10000 k
b10000 m
#1350000
0!
0.
0D
#1355000
1!
1.
1D
b10000100 h
b10000 k
b10000 m
#1360000
0!
0.
0D
#1365000
1!
1.
1D
b10000101 h
b10000 k
b10000 m
#1370000
0!
0.
0D
#1375000
1!
1.
1D
b10000110 h
b10000 k
b10000 m
#1380000
0!
0.
0D
#1385000
1!
1.
1D
b10000111 h
b10000 k
b10000 m
#1390000
0!
0.
0D
#1395000
1!
1.
1D
b10001000 h
b10000 k
b10000 m
#1400000
0!
0.
0D
#1405000
1!
1.
1D
b10001001 h
b10000 k
b10000 m
#1410000
0!
0.
0D
#1415000
1!
1.
1D
b10001010 h
b10000 k
b10000 m
#1420000
0!
0.
0D
#1425000
1!
1.
1D
b10001011 h
b10000 k
b10000 m
#1430000
0!
0.
0D
#1435000
1!
1.
1D
b10001100 h
b10000 k
b10000 m
#1440000
0!
0.
0D
#1445000
1!
1.
1D
b10001101 h
b10000 k
b10000 m
#1450000
0!
0.
0D
#1455000
1!
1.
1D
b10001110 h
b10000 k
b10000 m
#1460000
0!
0.
0D
#1465000
1!
1.
1D
b10001111 h
b10000 k
b10000 m
#1470000
0!
0.
0D
#1475000
1!
1.
1D
b10010000 h
b10000 k
b10000 m
#1480000
0!
0.
0D
#1485000
1!
1.
1D
b10010001 h
b10000 k
b10000 m
#1490000
0!
0.
0D
#1495000
1!
1.
1D
b10010010 h
b10000 k
b10000 m
#1500000
0!
0.
0D
#1505000
1!
1.
1D
b10010011 h
b10000 k
b10000 m
#1510000
0!
0.
0D
#1515000
1!
1.
1D
b10010100 h
b10000 k
b10000 m
#1520000
0!
0.
0D
#1525000
1!
1.
1D
b10010101 h
b10000 k
b10000 m
#1530000
0!
0.
0D
#1535000
1!
1.
1D
b10010110 h
b10000 k
b10000 m
#1540000
0!
0.
0D
#1545000
1!
1.
1D
b10010111 h
b10000 k
b10000 m
#1550000
0!
0.
0D
#1555000
1!
1.
1D
b10011000 h
b10000 k
b10000 m
#1560000
0!
0.
0D
#1565000
1!
1.
1D
b10011001 h
b10000 k
b10000 m
#1570000
0!
0.
0D
#1575000
1!
1.
1D
b10011010 h
b10000 k
b10000 m
#1580000
0!
0.
0D
#1585000
1!
1.
1D
b10011011 h
b10000 k
b10000 m
#1590000
0!
0.
0D
#1595000
1!
1.
1D
b10011100 h
b10000 k
b10000 m
#1600000
0!
0.
0D
#1605000
1!
1.
1D
b10011101 h
b10000 k
b10000 m
#1610000
0!
0.
0D
#1615000
1!
1.
1D
b10011110 h
b10000 k
b10000 m
#1620000
0!
0.
0D
#1625000
1!
1.
1D
b10011111 h
b10000 k
b10000 m
#1630000
0!
0.
0D
#1635000
1!
1.
1D
b10100000 h
b10000 k
b10000 m
#1640000
0!
0.
0D
#1645000
1!
1.
1D
b10100001 h
b10000 k
b10000 m
#1650000
0!
0.
0D
#1655000
1!
1.
1D
b10100010 h
b10000 k
b10000 m
#1660000
0!
0.
0D
#1665000
1!
1.
1D
b10100011 h
b10000 k
b10000 m
#1670000
0!
0.
0D
#1675000
1!
1.
1D
b10100100 h
b10000 k
b10000 m
#1680000
0!
0.
0D
#1685000
1!
1.
1D
b10100101 h
b10000 k
b10000 m
#1690000
0!
0.
0D
#1695000
1!
1.
1D
b10100110 h
b10000 k
b10000 m
#1700000
0!
0.
0D
#1705000
1!
1.
1D
b10100111 h
b10000 k
b10000 m
#1710000
0!
0.
0D
#1715000
1!
1.
1D
b10101000 h
b10000 k
b10000 m
#1720000
0!
0.
0D
#1725000
1!
1.
1D
b10101001 h
b10000 k
b10000 m
#1730000
0!
0.
0D
#1735000
1!
1.
1D
b10101010 h
b10000 k
b10000 m
#1740000
0!
0.
0D
#1745000
1!
1.
1D
b10101011 h
b10000 k
b10000 m
#1750000
0!
0.
0D
#1755000
1!
1.
1D
b10101100 h
b10000 k
b10000 m
#1760000
0!
0.
0D
#1765000
1!
1.
1D
b10101101 h
b10000 k
b10000 m
#1770000
0!
0.
0D
#1775000
1!
1.
1D
b10101110 h
b10000 k
b10000 m
#1780000
0!
0.
0D
#1785000
1!
1.
1D
b10101111 h
b10000 k
b10000 m
#1790000
0!
0.
0D
#1795000
1!
1.
1D
b10110000 h
b10000 k
b10000 m
#1800000
0!
0.
0D
#1805000
1!
1.
1D
b10110001 h
b10000 k
b10000 m
#1810000
0!
0.
0D
#1815000
1!
1.
1D
b10110010 h
b10000 k
b10000 m
#1820000
0!
0.
0D
#1825000
1!
1.
1D
b10110011 h
b10000 k
b10000 m
#1830000
0!
0.
0D
#1835000
1!
1.
1D
b10110100 h
b10000 k
b10000 m
#1840000
0!
0.
0D
#1845000
1!
1.
1D
b10110101 h
b10000 k
b10000 m
#1850000
0!
0.
0D
#1855000
1!
1.
1D
b10110110 h
b10000 k
b10000 m
#1860000
0!
0.
0D
#1865000
1!
1.
1D
b10110111 h
b10000 k
b10000 m
#1870000
0!
0.
0D
#1875000
1!
1.
1D
b10111000 h
b10000 k
b10000 m
#1880000
0!
0.
0D
#1885000
1!
1.
1D
b10111001 h
b10000 k
b10000 m
#1890000
0!
0.
0D
#1895000
1!
1.
1D
b10111010 h
b10000 k
b10000 m
#1900000
0!
0.
0D
#1905000
1!
1.
1D
b10111011 h
b10000 k
b10000 m
#1910000
0!
0.
0D
#1915000
1!
1.
1D
b10111100 h
b10000 k
b10000 m
#1920000
0!
0.
0D
#1925000
1!
1.
1D
b10111101 h
b10000 k
b10000 m
#1930000
0!
0.
0D
#1935000
1!
1.
1D
b10111110 h
b10000 k
b10000 m
#1940000
0!
0.
0D
#1945000
1!
1.
1D
b10111111 h
b10000 k
b10000 m
#1950000
0!
0.
0D
#1955000
1!
1.
1D
b11000000 h
b10000 k
b10000 m
#1960000
0!
0.
0D
#1965000
1!
1.
1D
b11000001 h
b10000 k
b10000 m
#1970000
0!
0.
0D
#1975000
1!
1.
1D
b11000010 h
b10000 k
b10000 m
#1980000
0!
0.
0D
#1985000
1!
1.
1D
b11000011 h
b10000 k
b10000 m
#1990000
0!
0.
0D
#1995000
1!
1.
1D
b11000100 h
b10000 k
b10000 m
#2000000
0!
0.
0D
#2005000
1!
1.
1D
b11000101 h
b10000 k
b10000 m
#2010000
0!
0.
0D
#2015000
1!
1.
1D
b11000110 h
b10000 k
b10000 m
#2020000
0!
0.
0D
#2025000
1!
1.
1D
b11000111 h
b10000 k
b10000 m
#2030000
0!
0.
0D
#2035000
1!
1.
1D
b11001000 h
b10000 k
b10000 m
#2040000
0!
0.
0D
#2045000
1!
b1001010 #
1.
b1001010 0
15
17
b11 9
b1001010 :
0>
b1 ?
1D
b11001001 h
b10000 k
b10000 m
#2050000
0!
0.
0D
#2055000
1!
1.
b1 B
1D
b11001010 h
b10000 k
b10000 m
#2060000
0!
0.
0D
#2065000
1!
1.
b10 B
1D
b11001011 h
b10000 k
b10000 m
#2070000
0!
0.
0D
#2075000
1!
1.
b11 B
1D
b11001100 h
b10000 k
b10000 m
#2080000
0!
0.
0D
#2085000
1!
1.
b100 B
1D
b11001101 h
b10000 k
b10000 m
#2090000
0!
0.
0D
#2095000
1!
1.
b101 B
1D
b11001110 h
b10000 k
b10000 m
#2100000
0!
0.
0D
#2105000
1!
1.
b110 B
1D
b11001111 h
b10000 k
b10000 m
#2110000
0!
0.
0D
#2115000
1!
1.
b111 B
1D
b11010000 h
b10000 k
b10000 m
#2120000
0!
0.
0D
#2125000
1!
1.
b1000 B
1D
b11010001 h
b10000 k
b10000 m
#2130000
0!
0.
0D
#2135000
1!
1.
b1001 B
1D
b11010010 h
b10000 k
b10000 m
#2140000
0!
0.
0D
#2145000
1!
1.
b1010 B
1D
b11010011 h
b10000 k
b10000 m
#2150000
0!
0.
0D
#2155000
1!
1.
b1011 B
1D
b11010100 h
b10000 k
b10000 m
#2160000
0!
0.
0D
#2165000
1!
1.
b1100 B
1D
b11010101 h
b10000 k
b10000 m
#2170000
0!
0.
0D
#2175000
1!
1.
b1101 B
1D
b11010110 h
b10000 k
b10000 m
#2180000
0!
0.
0D
#2185000
1!
1.
b1110 B
1D
b11010111 h
b10000 k
b10000 m
#2190000
0!
0.
0D
#2195000
1!
1.
b1111 B
1D
b11011000 h
b10000 k
b10000 m
#2200000
0!
0.
0D
#2205000
1!
1.
b10000 B
1D
b11011001 h
b10000 k
b10000 m
#2210000
0!
0.
0D
#2215000
1!
1.
b10001 B
1D
b11011010 h
b10000 k
b10000 m
#2220000
0!
0.
0D
#2225000
1!
1.
b10010 B
1D
b11011011 h
b10000 k
b10000 m
#2230000
0!
0.
0D
#2235000
1!
1.
b10011 B
1D
b11011100 h
b10000 k
b10000 m
#2240000
0!
0.
0D
#2245000
1!
1.
b10100 B
1D
b11011101 h
b10000 k
b10000 m
#2250000
0!
0.
0D
#2255000
1!
1.
b10101 B
1D
b11011110 h
b10000 k
b10000 m
#2260000
0!
0.
0D
#2265000
1!
1.
b10110 B
1D
b11011111 h
b10000 k
b10000 m
#2270000
0!
0.
0D
#2275000
1!
1.
b10111 B
1D
b11100000 h
b10000 k
b10000 m
#2280000
0!
0.
0D
#2285000
1!
1.
b11000 B
1D
b11100001 h
b10000 k
b10000 m
#2290000
0!
0.
0D
#2295000
1!
1.
b11001 B
1D
b11100010 h
b10000 k
b10000 m
#2300000
0!
0.
0D
#2305000
1!
1.
b11010 B
1D
b11100011 h
b10000 k
b10000 m
#2310000
0!
0.
0D
#2315000
1!
1.
b11011 B
1D
b11100100 h
b10000 k
b10000 m
#2320000
0!
0.
0D
#2325000
1!
1.
b11100 B
1D
b11100101 h
b10000 k
b10000 m
#2330000
0!
0.
0D
#2335000
1!
1.
b11101 B
1D
b11100110 h
b10000 k
b10000 m
#2340000
0!
0.
0D
#2345000
1!
1.
b11110 B
1D
b11100111 h
b10000 k
b10000 m
#2350000
0!
0.
0D
#2355000
1!
1.
b11111 B
1D
b11101000 h
b10000 k
b10000 m
#2360000
0!
0.
0D
#2365000
1!
1.
b100000 B
1D
b11101001 h
b10000 k
b10000 m
#2370000
0!
0.
0D
#2375000
1!
1.
b100001 B
1D
b11101010 h
b10000 k
b10000 m
#2380000
0!
0.
0D
#2385000
1!
1.
b100010 B
1D
b11101011 h
b10000 k
b10000 m
#2390000
0!
0.
0D
#2395000
1!
1.
b100011 B
1D
b11101100 h
b10000 k
b10000 m
#2400000
0!
0.
0D
#2405000
1!
1.
b100100 B
1D
b11101101 h
b10000 k
b10000 m
#2410000
0!
0.
0D
#2415000
1!
1.
b100101 B
1D
b11101110 h
b10000 k
b10000 m
#2420000
0!
0.
0D
#2425000
1!
1.
b100110 B
1D
b11101111 h
b10000 k
b10000 m
#2430000
0!
0.
0D
#2435000
1!
1.
b100111 B
1D
b11110000 h
b10000 k
b10000 m
#2440000
0!
0.
0D
#2445000
1!
1.
b101000 B
1D
b11110001 h
b10000 k
b10000 m
#2450000
0!
0.
0D
#2455000
1!
1.
b101001 B
1D
b11110010 h
b10000 k
b10000 m
#2460000
0!
0.
0D
#2465000
1!
1.
b101010 B
1D
b11110011 h
b10000 k
b10000 m
#2470000
0!
0.
0D
#2475000
1!
1.
b101011 B
1D
b11110100 h
b10000 k
b10000 m
#2480000
0!
0.
0D
#2485000
1!
1.
b101100 B
1D
b11110101 h
b10000 k
b10000 m
#2490000
0!
0.
0D
#2495000
1!
1.
b101101 B
1D
b11110110 h
b10000 k
b10000 m
#2500000
0!
0.
0D
#2505000
1!
1.
b101110 B
1D
b11110111 h
b10000 k
b10000 m
#2510000
0!
0.
0D
#2515000
1!
1.
b101111 B
1D
b11111000 h
b10000 k
b10000 m
#2520000
0!
0.
0D
#2525000
1!
1.
b110000 B
1D
b11111001 h
b10000 k
b10000 m
#2530000
0!
0.
0D
#2535000
1!
1.
b110001 B
1D
b11111010 h
b10000 k
b10000 m
#2540000
0!
0.
0D
#2545000
1!
1.
b110010 B
1D
b11111011 h
b10000 k
b10000 m
#2550000
0!
0.
0D
#2555000
1!
1.
b110011 B
1D
b11111100 h
b10000 k
b10000 m
#2560000
0!
0.
0D
#2565000
1!
1.
b110100 B
1D
b11111101 h
b10000 k
b10000 m
#2570000
0!
0.
0D
#2575000
1!
1.
b110101 B
1D
b11111110 h
b10000 k
b10000 m
#2580000
0!
0.
0D
#2585000
1!
1.
b110110 B
1D
b11111111 h
b10000 k
b10000 m
#2590000
0!
0.
0D
#2595000
1!
1.
b110111 B
1D
b100000000 h
b10000 k
b10000 m
#2600000
0!
0.
0D
#2605000
1!
1.
b111000 B
1D
b100000001 h
b10000 k
b10000 m
#2610000
0!
0.
0D
#2615000
1!
1.
b111001 B
1D
b100000010 h
b10000 k
b10000 m
#2620000
0!
0.
0D
#2625000
1!
1.
b111010 B
1D
b100000011 h
b10000 k
b10000 m
#2630000
0!
0.
0D
#2635000
1!
1.
b111011 B
1D
b100000100 h
b10000 k
b10000 m
#2640000
0!
0.
0D
