lab6_2_restart.sim/sim_1/behav/xsim/poly_test.vcd
$date
   Mon May  5 16:47:07 2025
$end
$version
  2022.2
$end
$timescale
  1ps
$end
$scope module tb_poly_note_pwm $end
$var reg 1 ! clk $end
$var reg 1 " rst_n $end
$var reg 8 # kc0 [7:0] $end
$var reg 8 $ kc1 [7:0] $end
$var reg 8 % kc2 [7:0] $end
$var reg 8 & kc3 [7:0] $end
$var reg 8 ' kc4 [7:0] $end
$var reg 8 ( kc5 [7:0] $end
$var reg 8 ) kc6 [7:0] $end
$var reg 8 * kc7 [7:0] $end
$var reg 8 + kc8 [7:0] $end
$var reg 8 , kc9 [7:0] $end
$var reg 8 - kc10 [7:0] $end
$var reg 8 . kc11 [7:0] $end
$var reg 8 / kc12 [7:0] $end
$var reg 8 0 kc13 [7:0] $end
$var reg 8 1 kc14 [7:0] $end
$var reg 8 2 kc15 [7:0] $end
$var reg 3 3 oc0 [2:0] $end
$var reg 3 4 oc1 [2:0] $end
$var reg 3 5 oc2 [2:0] $end
$var reg 3 6 oc3 [2:0] $end
$var reg 3 7 oc4 [2:0] $end
$var reg 3 8 oc5 [2:0] $end
$var reg 3 9 oc6 [2:0] $end
$var reg 3 : oc7 [2:0] $end
$var reg 3 ; oc8 [2:0] $end
$var reg 3 < oc9 [2:0] $end
$var reg 3 = oc10 [2:0] $end
$var reg 3 > oc11 [2:0] $end
$var reg 3 ? oc12 [2:0] $end
$var reg 3 @ oc13 [2:0] $end
$var reg 3 A oc14 [2:0] $end
$var reg 3 B oc15 [2:0] $end
$var reg 1 C pwm $end
$scope module dut $end
$var wire 1 D clk $end
$var wire 1 E rst_n $end
$var wire 8 F key0 [7:0] $end
$var wire 8 G key1 [7:0] $end
$var wire 8 H key2 [7:0] $end
$var wire 8 I key3 [7:0] $end
$var wire 8 J key4 [7:0] $end
$var wire 8 K key5 [7:0] $end
$var wire 8 L key6 [7:0] $end
$var wire 8 M key7 [7:0] $end
$var wire 8 N key8 [7:0] $end
$var wire 8 O key9 [7:0] $end
$var wire 8 P key10 [7:0] $end
$var wire 8 Q key11 [7:0] $end
$var wire 8 R key12 [7:0] $end
$var wire 8 S key13 [7:0] $end
$var wire 8 T key14 [7:0] $end
$var wire 8 U key15 [7:0] $end
$var wire 3 V octave0 [2:0] $end
$var wire 3 W octave1 [2:0] $end
$var wire 3 X octave2 [2:0] $end
$var wire 3 Y octave3 [2:0] $end
$var wire 3 Z octave4 [2:0] $end
$var wire 3 [ octave5 [2:0] $end
$var wire 3 \ octave6 [2:0] $end
$var wire 3 ] octave7 [2:0] $end
$var wire 3 ^ octave8 [2:0] $end
$var wire 3 _ octave9 [2:0] $end
$var wire 3 ` octave10 [2:0] $end
$var wire 3 a octave11 [2:0] $end
$var wire 3 b octave12 [2:0] $end
$var wire 3 c octave13 [2:0] $end
$var wire 3 d octave14 [2:0] $end
$var wire 3 e octave15 [2:0] $end
$var reg 1 C pwm_out $end
$var reg 5 f mix [4:0] $end
$var reg 10 g duty_raw [9:0] $end
$var reg 10 h pwm_cnt [9:0] $end
$scope begin Block160_3 $end
$scope begin Block171_4 $end
$var reg 32 i i [31:0] $end
$upscope $end
$upscope $end
$scope begin Block176_6 $end
$var reg 32 j i [31:0] $end
$upscope $end
$scope begin Block177_7 $end
$var reg 32 k i [31:0] $end
$upscope $end
$scope begin Block187_9 $end
$var reg 32 l i [31:0] $end
$upscope $end
$scope begin Block189_10 $end
$var reg 32 m i [31:0] $end
$upscope $end
$scope begin Block213_12 $end
$var reg 32 n i [31:0] $end
$upscope $end
$scope function decode $end
$var reg 32 o decode [31:0] $end
$var reg 8 p kc [7:0] $end
$var reg 3 q oct [2:0] $end
$var reg 6 r idx [5:0] $end
$var reg 32 s b [31:0] $end
$upscope $end
$upscope $end
$upscope $end
$enddefinitions $end
#0
$dumpvars
0!
0"
b0 #
b0 $
b0 %
b0 &
b0 '
b0 (
b0 )
b0 *
b0 +
b0 ,
b0 -
b0 .
b0 /
b0 0
b0 1
b0 2
b11 3
b11 4
b11 5
b11 6
b11 7
b11 8
b11 9
b11 :
b11 ;
b11 <
b11 =
b11 >
b11 ?
b11 @
b11 A
b11 B
0C
0D
0E
b0 F
b0 G
b0 H
b0 I
b0 J
b0 K
b0 L
b0 M
b0 N
b0 O
b0 P
b0 Q
b0 R
b0 S
b0 T
b0 U
b11 V
b11 W
b11 X
b11 Y
b11 Z
b11 [
b11 \
b11 ]
b11 ^
b11 _
b11 `
b11 a
b11 b
b11 c
b11 d
b11 e
b0 f
b0 g
b0 h
b10000 i
b10000 j
b0 k
b10000 l
b0 m
b10000 n
b0 o
b0 p
b0 q
b111000 r
b0 s
$end
#5000
1!
1D
b10000 j
b10000 l
#10000
0!
0D
#15000
1!
1D
b10000 j
b10000 l
#20000
0!
0D
#25000
1!
1D
b10000 j
b10000 l
#30000
0!
0D
#35000
1!
1D
b10000 j
b10000 l
#40000
0!
0D
#45000
1!
1"
b101011 #
1D
1E
b101011 F
b1 h
b10000 i
b10000 k
b10000 m
#50000
0!
0D
#55000
1!
1D
b10 h
b10000 k
b10000 m
#60000
0!
0D
#65000
1!
1C
1D
b1 f
b111111 g
b11 h
b10000 k
b10000 m
b10000 n
#70000
0!
0D
#75000
1!
1D
b1 f
b111111 g
b100 h
b10000 k
b10000 m
b10000 n
#80000
0!
0D
#85000
1!
1D
b1 f
b111111 g
b101 h
b10000 k
b10000 m
b10000 n
#90000
0!
0D
#95000
1!
1D
b1 f
b111111 g
b110 h
b10000 k
b10000 m
b10000 n
#100000
0!
0D
#105000
1!
1D
b1 f
b111111 g
b111 h
b10000 k
b10000 m
b10000 n
#110000
0!
0D
#115000
1!
1D
b1 f
b111111 g
b1000 h
b10000 k
b10000 m
b10000 n
#120000
0!
0D
#125000
1!
1D
b1 f
b111111 g
b1001 h
b10000 k
b10000 m
b10000 n
#130000
0!
0D
#135000
1!
1D
b1 f
b111111 g
b1010 h
b10000 k
b10000 m
b10000 n
#140000
0!
0D
#145000
1!
1D
b1 f
b111111 g
b1011 h
b10000 k
b10000 m
b10000 n
#150000
0!
0D
#155000
1!
1D
b1 f
b111111 g
b1100 h
b10000 k
b10000 m
b10000 n
#160000
0!
0D
#165000
1!
1D
b1 f
b111111 g
b1101 h
b10000 k
b10000 m
b10000 n
#170000
0!
0D
#175000
1!
1D
b1 f
b111111 g
b1110 h
b10000 k
b10000 m
b10000 n
#180000
0!
0D
#185000
1!
1D
b1 f
b111111 g
b1111 h
b10000 k
b10000 m
b10000 n
#190000
0!
0D
#195000
1!
1D
b1 f
b111111 g
b10000 h
b10000 k
b10000 m
b10000 n
#200000
0!
0D
#205000
1!
1D
b1 f
b111111 g
b10001 h
b10000 k
b10000 m
b10000 n
#210000
0!
0D
#215000
1!
1D
b1 f
b111111 g
b10010 h
b10000 k
b10000 m
b10000 n
#220000
0!
0D
#225000
1!
1D
b1 f
b111111 g
b10011 h
b10000 k
b10000 m
b10000 n
#230000
0!
0D
#235000
1!
1D
b1 f
b111111 g
b10100 h
b10000 k
b10000 m
b10000 n
#240000
0!
0D
#245000
1!
1D
b1 f
b111111 g
b10101 h
b10000 k
b10000 m
b10000 n
#250000
0!
0D
#255000
1!
1D
b1 f
b111111 g
b10110 h
b10000 k
b10000 m
b10000 n
#260000
0!
0D
#265000
1!
1D
b1 f
b111111 g
b10111 h
b10000 k
b10000 m
b10000 n
#270000
0!
0D
#275000
1!
1D
b1 f
b111111 g
b11000 h
b10000 k
b10000 m
b10000 n
#280000
0!
0D
#285000
1!
1D
b1 f
b111111 g
b11001 h
b10000 k
b10000 m
b10000 n
#290000
0!
0D
#295000
1!
1D
b1 f
b111111 g
b11010 h
b10000 k
b10000 m
b10000 n
#300000
0!
0D
#305000
1!
1D
b1 f
b111111 g
b11011 h
b10000 k
b10000 m
b10000 n
#310000
0!
0D
#315000
1!
1D
b1 f
b111111 g
b11100 h
b10000 k
b10000 m
b10000 n
#320000
0!
0D
#325000
1!
1D
b1 f
b111111 g
b11101 h
b10000 k
b10000 m
b10000 n
#330000
0!
0D
#335000
1!
1D
b1 f
b111111 g
b11110 h
b10000 k
b10000 m
b10000 n
#340000
0!
0D
#345000
1!
1D
b1 f
b111111 g
b11111 h
b10000 k
b10000 m
b10000 n
#350000
0!
0D
#355000
1!
1D
b1 f
b111111 g
b100000 h
b10000 k
b10000 m
b10000 n
#360000
0!
0D
#365000
1!
1D
b1 f
b111111 g
b100001 h
b10000 k
b10000 m
b10000 n
#370000
0!
0D
#375000
1!
1D
b1 f
b111111 g
b100010 h
b10000 k
b10000 m
b10000 n
#380000
0!
0D
#385000
1!
1D
b1 f
b111111 g
b100011 h
b10000 k
b10000 m
b10000 n
#390000
0!
0D
#395000
1!
1D
b1 f
b111111 g
b100100 h
b10000 k
b10000 m
b10000 n
#400000
0!
0D
#405000
1!
1D
b1 f
b111111 g
b100101 h
b10000 k
b10000 m
b10000 n
#410000
0!
0D
#415000
1!
1D
b1 f
b111111 g
b100110 h
b10000 k
b10000 m
b10000 n
#420000
0!
0D
#425000
1!
1D
b1 f
b111111 g
b100111 h
b10000 k
b10000 m
b10000 n
#430000
0!
0D
#435000
1!
1D
b1 f
b111111 g
b101000 h
b10000 k
b10000 m
b10000 n
#440000
0!
0D
#445000
1!
1D
b1 f
b111111 g
b101001 h
b10000 k
b10000 m
b10000 n
#450000
0!
0D
#455000
1!
1D
b1 f
b111111 g
b101010 h
b10000 k
b10000 m
b10000 n
#460000
0!
0D
#465000
1!
1D
b1 f
b111111 g
b101011 h
b10000 k
b10000 m
b10000 n
#470000
0!
0D
#475000
1!
1D
b1 f
b111111 g
b101100 h
b10000 k
b10000 m
b10000 n
#480000
0!
0D
#485000
1!
1D
b1 f
b111111 g
b101101 h
b10000 k
b10000 m
b10000 n
#490000
0!
0D
#495000
1!
1D
b1 f
b111111 g
b101110 h
b10000 k
b10000 m
b10000 n
#500000
0!
0D
#505000
1!
1D
b1 f
b111111 g
b101111 h
b10000 k
b10000 m
b10000 n
#510000
0!
0D
#515000
1!
1D
b1 f
b111111 g
b110000 h
b10000 k
b10000 m
b10000 n
#520000
0!
0D
#525000
1!
1D
b1 f
b111111 g
b110001 h
b10000 k
b10000 m
b10000 n
#530000
0!
0D
#535000
1!
1D
b1 f
b111111 g
b110010 h
b10000 k
b10000 m
b10000 n
#540000
0!
0D
#545000
1!
1D
b1 f
b111111 g
b110011 h
b10000 k
b10000 m
b10000 n
#550000
0!
0D
#555000
1!
1D
b1 f
b111111 g
b110100 h
b10000 k
b10000 m
b10000 n
#560000
0!
0D
#565000
1!
1D
b1 f
b111111 g
b110101 h
b10000 k
b10000 m
b10000 n
#570000
0!
0D
#575000
1!
1D
b1 f
b111111 g
b110110 h
b10000 k
b10000 m
b10000 n
#580000
0!
0D
#585000
1!
1D
b1 f
b111111 g
b110111 h
b10000 k
b10000 m
b10000 n
#590000
0!
0D
#595000
1!
1D
b1 f
b111111 g
b111000 h
b10000 k
b10000 m
b10000 n
#600000
0!
0D
#605000
1!
1D
b1 f
b111111 g
b111001 h
b10000 k
b10000 m
b10000 n
#610000
0!
0D
#615000
1!
1D
b1 f
b111111 g
b111010 h
b10000 k
b10000 m
b10000 n
#620000
0!
0D
#625000
1!
1D
b1 f
b111111 g
b111011 h
b10000 k
b10000 m
b10000 n
#630000
0!
0D
#635000
1!
1D
b1 f
b111111 g
b111100 h
b10000 k
b10000 m
b10000 n
#640000
0!
0D
#645000
1!
1D
b1 f
b111111 g
b111101 h
b10000 k
b10000 m
b10000 n
#650000
0!
0D
#655000
1!
1D
b1 f
b111111 g
b111110 h
b10000 k
b10000 m
b10000 n
#660000
0!
0D
#665000
1!
0C
1D
b1 f
b111111 g
b111111 h
b10000 k
b10000 m
b10000 n
#670000
0!
0D
#675000
1!
1D
b1 f
b111111 g
b1000000 h
b10000 k
b10000 m
b10000 n
#680000
0!
0D
#685000
1!
1D
b1 f
b111111 g
b1000001 h
b10000 k
b10000 m
b10000 n
#690000
0!
0D
#695000
1!
1D
b1 f
b111111 g
b1000010 h
b10000 k
b10000 m
b10000 n
#700000
0!
0D
#705000
1!
1D
b1 f
b111111 g
b1000011 h
b10000 k
b10000 m
b10000 n
#710000
0!
0D
#715000
1!
1D
b1 f
b111111 g
b1000100 h
b10000 k
b10000 m
b10000 n
#720000
0!
0D
#725000
1!
1D
b1 f
b111111 g
b1000101 h
b10000 k
b10000 m
b10000 n
#730000
0!
0D
#735000
1!
1D
b1 f
b111111 g
b1000110 h
b10000 k
b10000 m
b10000 n
#740000
0!
0D
#745000
1!
1D
b1 f
b111111 g
b1000111 h
b10000 k
b10000 m
b10000 n
#750000
0!
0D
#755000
1!
1D
b1 f
b111111 g
b1001000 h
b10000 k
b10000 m
b10000 n
#760000
0!
0D
#765000
1!
1D
b1 f
b111111 g
b1001001 h
b10000 k
b10000 m
b10000 n
#770000
0!
0D
#775000
1!
1D
b1 f
b111111 g
b1001010 h
b10000 k
b10000 m
b10000 n
#780000
0!
0D
#785000
1!
1D
b1 f
b111111 g
b1001011 h
b10000 k
b10000 m
b10000 n
#790000
0!
0D
#795000
1!
1D
b1 f
b111111 g
b1001100 h
b10000 k
b10000 m
b10000 n
#800000
0!
0D
#805000
1!
1D
b1 f
b111111 g
b1001101 h
b10000 k
b10000 m
b10000 n
#810000
0!
0D
#815000
1!
1D
b1 f
b111111 g
b1001110 h
b10000 k
b10000 m
b10000 n
#820000
0!
0D
#825000
1!
1D
b1 f
b111111 g
b1001111 h
b10000 k
b10000 m
b10000 n
#830000
0!
0D
#835000
1!
1D
b1 f
b111111 g
b1010000 h
b10000 k
b10000 m
b10000 n
#840000
0!
0D
#845000
1!
1D
b1 f
b111111 g
b1010001 h
b10000 k
b10000 m
b10000 n
#850000
0!
0D
#855000
1!
1D
b1 f
b111111 g
b1010010 h
b10000 k
b10000 m
b10000 n
#860000
0!
0D
#865000
1!
1D
b1 f
b111111 g
b1010011 h
b10000 k
b10000 m
b10000 n
#870000
0!
0D
#875000
1!
1D
b1 f
b111111 g
b1010100 h
b10000 k
b10000 m
b10000 n
#880000
0!
0D
#885000
1!
1D
b1 f
b111111 g
b1010101 h
b10000 k
b10000 m
b10000 n
#890000
0!
0D
#895000
1!
1D
b1 f
b111111 g
b1010110 h
b10000 k
b10000 m
b10000 n
#900000
0!
0D
#905000
1!
1D
b1 f
b111111 g
b1010111 h
b10000 k
b10000 m
b10000 n
#910000
0!
0D
#915000
1!
1D
b1 f
b111111 g
b1011000 h
b10000 k
b10000 m
b10000 n
#920000
0!
0D
#925000
1!
1D
b1 f
b111111 g
b1011001 h
b10000 k
b10000 m
b10000 n
#930000
0!
0D
#935000
1!
1D
b1 f
b111111 g
b1011010 h
b10000 k
b10000 m
b10000 n
#940000
0!
0D
#945000
1!
1D
b1 f
b111111 g
b1011011 h
b10000 k
b10000 m
b10000 n
#950000
0!
0D
#955000
1!
1D
b1 f
b111111 g
b1011100 h
b10000 k
b10000 m
b10000 n
#960000
0!
0D
#965000
1!
1D
b1 f
b111111 g
b1011101 h
b10000 k
b10000 m
b10000 n
#970000
0!
0D
#975000
1!
1D
b1 f
b111111 g
b1011110 h
b10000 k
b10000 m
b10000 n
#980000
0!
0D
#985000
1!
1D
b1 f
b111111 g
b1011111 h
b10000 k
b10000 m
b10000 n
#990000
0!
0D
#995000
1!
1D
b1 f
b111111 g
b1100000 h
b10000 k
b10000 m
b10000 n
#1000000
0!
0D
#1005000
1!
1D
b1 f
b111111 g
b1100001 h
b10000 k
b10000 m
b10000 n
#1010000
0!
0D
#1015000
1!
1D
b1 f
b111111 g
b1100010 h
b10000 k
b10000 m
b10000 n
#1020000
0!
0D
#1025000
1!
1D
b1 f
b111111 g
b1100011 h
b10000 k
b10000 m
b10000 n
#1030000
0!
0D
#1035000
1!
1D
b1 f
b111111 g
b1100100 h
b10000 k
b10000 m
b10000 n
#1040000
0!
0D
#1045000
1!
1D
b1 f
b111111 g
b1100101 h
b10000 k
b10000 m
b10000 n
#1050000
0!
0D
#1055000
1!
1D
b1 f
b111111 g
b1100110 h
b10000 k
b10000 m
b10000 n
#1060000
0!
0D
#1065000
1!
1D
b1 f
b111111 g
b1100111 h
b10000 k
b10000 m
b10000 n
#1070000
0!
0D
#1075000
1!
1D
b1 f
b111111 g
b1101000 h
b10000 k
b10000 m
b10000 n
#1080000
0!
0D
#1085000
1!
1D
b1 f
b111111 g
b1101001 h
b10000 k
b10000 m
b10000 n
#1090000
0!
0D
#1095000
1!
1D
b1 f
b111111 g
b1101010 h
b10000 k
b10000 m
b10000 n
#1100000
0!
0D
#1105000
1!
1D
b1 f
b111111 g
b1101011 h
b10000 k
b10000 m
b10000 n
#1110000
0!
0D
#1115000
1!
1D
b1 f
b111111 g
b1101100 h
b10000 k
b10000 m
b10000 n
#1120000
0!
0D
#1125000
1!
1D
b1 f
b111111 g
b1101101 h
b10000 k
b10000 m
b10000 n
#1130000
0!
0D
#1135000
1!
1D
b1 f
b111111 g
b1101110 h
b10000 k
b10000 m
b10000 n
#1140000
0!
0D
#1145000
1!
1D
b1 f
b111111 g
b1101111 h
b10000 k
b10000 m
b10000 n
#1150000
0!
0D
#1155000
1!
1D
b1 f
b111111 g
b1110000 h
b10000 k
b10000 m
b10000 n
#1160000
0!
0D
#1165000
1!
1D
b1 f
b111111 g
b1110001 h
b10000 k
b10000 m
b10000 n
#1170000
0!
0D
#1175000
1!
1D
b1 f
b111111 g
b1110010 h
b10000 k
b10000 m
b10000 n
#1180000
0!
0D
#1185000
1!
1D
b1 f
b111111 g
b1110011 h
b10000 k
b10000 m
b10000 n
#1190000
0!
0D
#1195000
1!
1D
b1 f
b111111 g
b1110100 h
b10000 k
b10000 m
b10000 n
#1200000
0!
0D
#1205000
1!
1D
b1 f
b111111 g
b1110101 h
b10000 k
b10000 m
b10000 n
#1210000
0!
0D
#1215000
1!
1D
b1 f
b111111 g
b1110110 h
b10000 k
b10000 m
b10000 n
#1220000
0!
0D
#1225000
1!
1D
b1 f
b111111 g
b1110111 h
b10000 k
b10000 m
b10000 n
#1230000
0!
0D
#1235000
1!
1D
b1 f
b111111 g
b1111000 h
b10000 k
b10000 m
b10000 n
#1240000
0!
0D
#1245000
1!
1D
b1 f
b111111 g
b1111001 h
b10000 k
b10000 m
b10000 n
#1250000
0!
0D
#1255000
1!
1D
b1 f
b111111 g
b1111010 h
b10000 k
b10000 m
b10000 n
#1260000
0!
0D
#1265000
1!
1D
b1 f
b111111 g
b1111011 h
b10000 k
b10000 m
b10000 n
#1270000
0!
0D
#1275000
1!
1D
b1 f
b111111 g
b1111100 h
b10000 k
b10000 m
b10000 n
#1280000
0!
0D
#1285000
1!
1D
b1 f
b111111 g
b1111101 h
b10000 k
b10000 m
b10000 n
#1290000
0!
0D
#1295000
1!
1D
b1 f
b111111 g
b1111110 h
b10000 k
b10000 m
b10000 n
#1300000
0!
0D
#1305000
1!
1D
b1 f
b111111 g
b1111111 h
b10000 k
b10000 m
b10000 n
#1310000
0!
0D
#1315000
1!
1D
b1 f
b111111 g
b10000000 h
b10000 k
b10000 m
b10000 n
#1320000
0!
0D
#1325000
1!
1D
b1 f
b111111 g
b10000001 h
b10000 k
b10000 m
b10000 n
#1330000
0!
0D
#1335000
1!
1D
b1 f
b111111 g
b10000010 h
b10000 k
b10000 m
b10000 n
#1340000
0!
0D
#1345000
1!
1D
b1 f
b111111 g
b10000011 h
b10000 k
b10000 m
b10000 n
#1350000
0!
0D
#1355000
1!
1D
b1 f
b111111 g
b10000100 h
b10000 k
b10000 m
b10000 n
#1360000
0!
0D
#1365000
1!
1D
b1 f
b111111 g
b10000101 h
b10000 k
b10000 m
b10000 n
#1370000
0!
0D
#1375000
1!
1D
b1 f
b111111 g
b10000110 h
b10000 k
b10000 m
b10000 n
#1380000
0!
0D
#1385000
1!
1D
b1 f
b111111 g
b10000111 h
b10000 k
b10000 m
b10000 n
#1390000
0!
0D
#1395000
1!
1D
b1 f
b111111 g
b10001000 h
b10000 k
b10000 m
b10000 n
#1400000
0!
0D
#1405000
1!
1D
b1 f
b111111 g
b10001001 h
b10000 k
b10000 m
b10000 n
#1410000
0!
0D
#1415000
1!
1D
b1 f
b111111 g
b10001010 h
b10000 k
b10000 m
b10000 n
#1420000
0!
0D
#1425000
1!
1D
b1 f
b111111 g
b10001011 h
b10000 k
b10000 m
b10000 n
#1430000
0!
0D
#1435000
1!
1D
b1 f
b111111 g
b10001100 h
b10000 k
b10000 m
b10000 n
#1440000
0!
0D
#1445000
1!
1D
b1 f
b111111 g
b10001101 h
b10000 k
b10000 m
b10000 n
#1450000
0!
0D
#1455000
1!
1D
b1 f
b111111 g
b10001110 h
b10000 k
b10000 m
b10000 n
#1460000
0!
0D
#1465000
1!
1D
b1 f
b111111 g
b10001111 h
b10000 k
b10000 m
b10000 n
#1470000
0!
0D
#1475000
1!
1D
b1 f
b111111 g
b10010000 h
b10000 k
b10000 m
b10000 n
#1480000
0!
0D
#1485000
1!
1D
b1 f
b111111 g
b10010001 h
b10000 k
b10000 m
b10000 n
#1490000
0!
0D
#1495000
1!
1D
b1 f
b111111 g
b10010010 h
b10000 k
b10000 m
b10000 n
#1500000
0!
0D
#1505000
1!
1D
b1 f
b111111 g
b10010011 h
b10000 k
b10000 m
b10000 n
#1510000
0!
0D
#1515000
1!
1D
b1 f
b111111 g
b10010100 h
b10000 k
b10000 m
b10000 n
#1520000
0!
0D
#1525000
1!
1D
b1 f
b111111 g
b10010101 h
b10000 k
b10000 m
b10000 n
#1530000
0!
0D
#1535000
1!
1D
b1 f
b111111 g
b10010110 h
b10000 k
b10000 m
b10000 n
#1540000
0!
0D
#1545000
1!
1D
b1 f
b111111 g
b10010111 h
b10000 k
b10000 m
b10000 n
#1550000
0!
0D
#1555000
1!
1D
b1 f
b111111 g
b10011000 h
b10000 k
b10000 m
b10000 n
#1560000
0!
0D
#1565000
1!
1D
b1 f
b111111 g
b10011001 h
b10000 k
b10000 m
b10000 n
#1570000
0!
0D
#1575000
1!
1D
b1 f
b111111 g
b10011010 h
b10000 k
b10000 m
b10000 n
#1580000
0!
0D
#1585000
1!
1D
b1 f
b111111 g
b10011011 h
b10000 k
b10000 m
b10000 n
#1590000
0!
0D
#1595000
1!
1D
b1 f
b111111 g
b10011100 h
b10000 k
b10000 m
b10000 n
#1600000
0!
0D
#1605000
1!
1D
b1 f
b111111 g
b10011101 h
b10000 k
b10000 m
b10000 n
#1610000
0!
0D
#1615000
1!
1D
b1 f
b111111 g
b10011110 h
b10000 k
b10000 m
b10000 n
#1620000
0!
0D
#1625000
1!
1D
b1 f
b111111 g
b10011111 h
b10000 k
b10000 m
b10000 n
#1630000
0!
0D
#1635000
1!
1D
b1 f
b111111 g
b10100000 h
b10000 k
b10000 m
b10000 n
#1640000
0!
0D
#1645000
1!
1D
b1 f
b111111 g
b10100001 h
b10000 k
b10000 m
b10000 n
#1650000
0!
0D
#1655000
1!
1D
b1 f
b111111 g
b10100010 h
b10000 k
b10000 m
b10000 n
#1660000
0!
0D
#1665000
1!
1D
b1 f
b111111 g
b10100011 h
b10000 k
b10000 m
b10000 n
#1670000
0!
0D
#1675000
1!
1D
b1 f
b111111 g
b10100100 h
b10000 k
b10000 m
b10000 n
#1680000
0!
0D
#1685000
1!
1D
b1 f
b111111 g
b10100101 h
b10000 k
b10000 m
b10000 n
#1690000
0!
0D
#1695000
1!
1D
b1 f
b111111 g
b10100110 h
b10000 k
b10000 m
b10000 n
#1700000
0!
0D
#1705000
1!
1D
b1 f
b111111 g
b10100111 h
b10000 k
b10000 m
b10000 n
#1710000
0!
0D
#1715000
1!
1D
b1 f
b111111 g
b10101000 h
b10000 k
b10000 m
b10000 n
#1720000
0!
0D
#1725000
1!
1D
b1 f
b111111 g
b10101001 h
b10000 k
b10000 m
b10000 n
#1730000
0!
0D
#1735000
1!
1D
b1 f
b111111 g
b10101010 h
b10000 k
b10000 m
b10000 n
#1740000
0!
0D
#1745000
1!
1D
b1 f
b111111 g
b10101011 h
b10000 k
b10000 m
b10000 n
#1750000
0!
0D
#1755000
1!
1D
b1 f
b111111 g
b10101100 h
b10000 k
b10000 m
b10000 n
#1760000
0!
0D
#1765000
1!
1D
b1 f
b111111 g
b10101101 h
b10000 k
b10000 m
b10000 n
#1770000
0!
0D
#1775000
1!
1D
b1 f
b111111 g
b10101110 h
b10000 k
b10000 m
b10000 n
#1780000
0!
0D
#1785000
1!
1D
b1 f
b111111 g
b10101111 h
b10000 k
b10000 m
b10000 n
#1790000
0!
0D
#1795000
1!
1D
b1 f
b111111 g
b10110000 h
b10000 k
b10000 m
b10000 n
#1800000
0!
0D
#1805000
1!
1D
b1 f
b111111 g
b10110001 h
b10000 k
b10000 m
b10000 n
#1810000
0!
0D
#1815000
1!
1D
b1 f
b111111 g
b10110010 h
b10000 k
b10000 m
b10000 n
#1820000
0!
0D
#1825000
1!
1D
b1 f
b111111 g
b10110011 h
b10000 k
b10000 m
b10000 n
#1830000
0!
0D
#1835000
1!
1D
b1 f
b111111 g
b10110100 h
b10000 k
b10000 m
b10000 n
#1840000
0!
0D
#1845000
1!
1D
b1 f
b111111 g
b10110101 h
b10000 k
b10000 m
b10000 n
#1850000
0!
0D
#1855000
1!
1D
b1 f
b111111 g
b10110110 h
b10000 k
b10000 m
b10000 n
#1860000
0!
0D
#1865000
1!
1D
b1 f
b111111 g
b10110111 h
b10000 k
b10000 m
b10000 n
#1870000
0!
0D
#1875000
1!
1D
b1 f
b111111 g
b10111000 h
b10000 k
b10000 m
b10000 n
#1880000
0!
0D
#1885000
1!
1D
b1 f
b111111 g
b10111001 h
b10000 k
b10000 m
b10000 n
#1890000
0!
0D
#1895000
1!
1D
b1 f
b111111 g
b10111010 h
b10000 k
b10000 m
b10000 n
#1900000
0!
0D
#1905000
1!
1D
b1 f
b111111 g
b10111011 h
b10000 k
b10000 m
b10000 n
#1910000
0!
0D
#1915000
1!
1D
b1 f
b111111 g
b10111100 h
b10000 k
b10000 m
b10000 n
#1920000
0!
0D
#1925000
1!
1D
b1 f
b111111 g
b10111101 h
b10000 k
b10000 m
b10000 n
#1930000
0!
0D
#1935000
1!
1D
b1 f
b111111 g
b10111110 h
b10000 k
b10000 m
b10000 n
#1940000
0!
0D
#1945000
1!
1D
b1 f
b111111 g
b10111111 h
b10000 k
b10000 m
b10000 n
#1950000
0!
0D
#1955000
1!
1D
b1 f
b111111 g
b11000000 h
b10000 k
b10000 m
b10000 n
#1960000
0!
0D
#1965000
1!
1D
b1 f
b111111 g
b11000001 h
b10000 k
b10000 m
b10000 n
#1970000
0!
0D
#1975000
1!
1D
b1 f
b111111 g
b11000010 h
b10000 k
b10000 m
b10000 n
#1980000
0!
0D
#1985000
1!
1D
b1 f
b111111 g
b11000011 h
b10000 k
b10000 m
b10000 n
#1990000
0!
0D
#1995000
1!
1D
b1 f
b111111 g
b11000100 h
b10000 k
b10000 m
b10000 n
#2000000
0!
0D
#2005000
1!
1D
b1 f
b111111 g
b11000101 h
b10000 k
b10000 m
b10000 n
#2010000
0!
0D
#2015000
1!
1D
b1 f
b111111 g
b11000110 h
b10000 k
b10000 m
b10000 n
#2020000
0!
0D
#2025000
1!
1D
b1 f
b111111 g
b11000111 h
b10000 k
b10000 m
b10000 n
#2030000
0!
0D
#2035000
1!
1D
b1 f
b111111 g
b11001000 h
b10000 k
b10000 m
b10000 n
#2040000
0!
0D
#2045000
1!
1D
b1 f
b111111 g
b11001001 h
b10000 k
b10000 m
b10000 n
#2050000
0!
0D
#2055000
1!
1D
b1 f
b111111 g
b11001010 h
b10000 k
b10000 m
b10000 n
#2060000
0!
0D
#2065000
1!
1D
b1 f
b111111 g
b11001011 h
b10000 k
b10000 m
b10000 n
#2070000
0!
0D
#2075000
1!
1D
b1 f
b111111 g
b11001100 h
b10000 k
b10000 m
b10000 n
#2080000
0!
0D
#2085000
1!
1D
b1 f
b111111 g
b11001101 h
b10000 k
b10000 m
b10000 n
#2090000
0!
0D
#2095000
1!
1D
b1 f
b111111 g
b11001110 h
b10000 k
b10000 m
b10000 n
#2100000
0!
0D
#2105000
1!
1D
b1 f
b111111 g
b11001111 h
b10000 k
b10000 m
b10000 n
#2110000
0!
0D
#2115000
1!
1D
b1 f
b111111 g
b11010000 h
b10000 k
b10000 m
b10000 n
#2120000
0!
0D
#2125000
1!
1D
b1 f
b111111 g
b11010001 h
b10000 k
b10000 m
b10000 n
#2130000
0!
0D
#2135000
1!
1D
b1 f
b111111 g
b11010010 h
b10000 k
b10000 m
b10000 n
#2140000
0!
0D
#2145000
1!
1D
b1 f
b111111 g
b11010011 h
b10000 k
b10000 m
b10000 n
#2150000
0!
0D
#2155000
1!
1D
b1 f
b111111 g
b11010100 h
b10000 k
b10000 m
b10000 n
#2160000
0!
0D
#2165000
1!
1D
b1 f
b111111 g
b11010101 h
b10000 k
b10000 m
b10000 n
#2170000
0!
0D
#2175000
1!
1D
b1 f
b111111 g
b11010110 h
b10000 k
b10000 m
b10000 n
#2180000
0!
0D
#2185000
1!
1D
b1 f
b111111 g
b11010111 h
b10000 k
b10000 m
b10000 n
#2190000
0!
0D
#2195000
1!
1D
b1 f
b111111 g
b11011000 h
b10000 k
b10000 m
b10000 n
#2200000
0!
0D
#2205000
1!
1D
b1 f
b111111 g
b11011001 h
b10000 k
b10000 m
b10000 n
#2210000
0!
0D
#2215000
1!
1D
b1 f
b111111 g
b11011010 h
b10000 k
b10000 m
b10000 n
#2220000
0!
0D
#2225000
1!
1D
b1 f
b111111 g
b11011011 h
b10000 k
b10000 m
b10000 n
#2230000
0!
0D
#2235000
1!
1D
b1 f
b111111 g
b11011100 h
b10000 k
b10000 m
b10000 n
#2240000
0!
0D
