lab6_2_restart.sim/sim_1/behav/xsim/poly_note_pwm.vcd
$date
   Mon May  5 16:57:22 2025
$end
$version
  2022.2
$end
$timescale
  1ps
$end
$scope module tb_poly_note_pwm $end
$var reg 1 ! clk $end
$var reg 1 " rst_n $end
$var reg 8 # kc0 [7:0] $end
$var reg 8 $ kc1 [7:0] $end
$var reg 8 % kc2 [7:0] $end
$var reg 8 & kc3 [7:0] $end
$var reg 8 ' kc4 [7:0] $end
$var reg 8 ( kc5 [7:0] $end
$var reg 8 ) kc6 [7:0] $end
$var reg 8 * kc7 [7:0] $end
$var reg 8 + kc8 [7:0] $end
$var reg 8 , kc9 [7:0] $end
$var reg 8 - kc10 [7:0] $end
$var reg 8 . kc11 [7:0] $end
$var reg 8 / kc12 [7:0] $end
$var reg 8 0 kc13 [7:0] $end
$var reg 8 1 kc14 [7:0] $end
$var reg 8 2 kc15 [7:0] $end
$var reg 3 3 oc0 [2:0] $end
$var reg 3 4 oc1 [2:0] $end
$var reg 3 5 oc2 [2:0] $end
$var reg 3 6 oc3 [2:0] $end
$var reg 3 7 oc4 [2:0] $end
$var reg 3 8 oc5 [2:0] $end
$var reg 3 9 oc6 [2:0] $end
$var reg 3 : oc7 [2:0] $end
$var reg 3 ; oc8 [2:0] $end
$var reg 3 < oc9 [2:0] $end
$var reg 3 = oc10 [2:0] $end
$var reg 3 > oc11 [2:0] $end
$var reg 3 ? oc12 [2:0] $end
$var reg 3 @ oc13 [2:0] $end
$var reg 3 A oc14 [2:0] $end
$var reg 3 B oc15 [2:0] $end
$var wire 1 C pwm_out $end
$scope module dut $end
$var wire 1 D clk $end
$var wire 1 E rst_n $end
$var wire 8 F key0 [7:0] $end
$var wire 8 G key1 [7:0] $end
$var wire 8 H key2 [7:0] $end
$var wire 8 I key3 [7:0] $end
$var wire 8 J key4 [7:0] $end
$var wire 8 K key5 [7:0] $end
$var wire 8 L key6 [7:0] $end
$var wire 8 M key7 [7:0] $end
$var wire 8 N key8 [7:0] $end
$var wire 8 O key9 [7:0] $end
$var wire 8 P key10 [7:0] $end
$var wire 8 Q key11 [7:0] $end
$var wire 8 R key12 [7:0] $end
$var wire 8 S key13 [7:0] $end
$var wire 8 T key14 [7:0] $end
$var wire 8 U key15 [7:0] $end
$var wire 3 V octave0 [2:0] $end
$var wire 3 W octave1 [2:0] $end
$var wire 3 X octave2 [2:0] $end
$var wire 3 Y octave3 [2:0] $end
$var wire 3 Z octave4 [2:0] $end
$var wire 3 [ octave5 [2:0] $end
$var wire 3 \ octave6 [2:0] $end
$var wire 3 ] octave7 [2:0] $end
$var wire 3 ^ octave8 [2:0] $end
$var wire 3 _ octave9 [2:0] $end
$var wire 3 ` octave10 [2:0] $end
$var wire 3 a octave11 [2:0] $end
$var wire 3 b octave12 [2:0] $end
$var wire 3 c octave13 [2:0] $end
$var wire 3 d octave14 [2:0] $end
$var wire 3 e octave15 [2:0] $end
$var reg 1 f pwm_out $end
$var reg 5 g mix [4:0] $end
$var reg 10 h duty_raw [9:0] $end
$var reg 10 i pwm_cnt [9:0] $end
$scope begin Block160_3 $end
$scope begin Block171_4 $end
$var reg 32 j i [31:0] $end
$upscope $end
$upscope $end
$scope begin Block176_6 $end
$var reg 32 k i [31:0] $end
$upscope $end
$scope begin Block177_7 $end
$var reg 32 l i [31:0] $end
$upscope $end
$scope begin Block187_9 $end
$var reg 32 m i [31:0] $end
$upscope $end
$scope begin Block189_10 $end
$var reg 32 n i [31:0] $end
$upscope $end
$scope begin Block213_12 $end
$var reg 32 o i [31:0] $end
$upscope $end
$scope function decode $end
$var reg 32 p decode [31:0] $end
$var reg 8 q kc [7:0] $end
$var reg 3 r oct [2:0] $end
$var reg 6 s idx [5:0] $end
$var reg 32 t b [31:0] $end
$upscope $end
$upscope $end
$upscope $end
$enddefinitions $end
#0
$dumpvars
0!
0"
b0 #
b0 $
b0 %
b0 &
b0 '
b0 (
b0 )
b0 *
b0 +
b0 ,
b0 -
b0 .
b0 /
b0 0
b0 1
b0 2
b11 3
b11 4
b11 5
b11 6
b11 7
b11 8
b11 9
b11 :
b11 ;
b11 <
b11 =
b11 >
b11 ?
b11 @
b11 A
b11 B
0C
0D
0E
b0 F
b0 G
b0 H
b0 I
b0 J
b0 K
b0 L
b0 M
b0 N
b0 O
b0 P
b0 Q
b0 R
b0 S
b0 T
b0 U
b11 V
b11 W
b11 X
b11 Y
b11 Z
b11 [
b11 \
b11 ]
b11 ^
b11 _
b11 `
b11 a
b11 b
b11 c
b11 d
b11 e
0f
b0 g
b0 h
b0 i
b10000 j
b10000 k
b0 l
b10000 m
b0 n
b10000 o
b0 p
b0 q
b0 r
b111000 s
b0 t
$end
#5000
1!
1D
b10000 k
b10000 m
#10000
0!
0D
#15000
1!
1D
b10000 k
b10000 m
#20000
0!
0D
#25000
1!
1D
b10000 k
b10000 m
#30000
0!
0D
#35000
1!
1D
b10000 k
b10000 m
#40000
0!
0D
#45000
1!
1"
b101011 #
1D
1E
b101011 F
0f
b1 i
b10000 j
b10000 l
b10000 n
#50000
0!
0D
#55000
1!
1D
0f
b10 i
b10000 l
b10000 n
#60000
0!
0D
#65000
1!
1C
1D
1f
b1 g
b111111 h
b11 i
b10000 l
b10000 n
b10000 o
#70000
0!
0D
#75000
1!
1D
1f
b1 g
b111111 h
b100 i
b10000 l
b10000 n
b10000 o
#80000
0!
0D
#85000
1!
1D
1f
b1 g
b111111 h
b101 i
b10000 l
b10000 n
b10000 o
#90000
0!
0D
#95000
1!
1D
1f
b1 g
b111111 h
b110 i
b10000 l
b10000 n
b10000 o
#100000
0!
0D
#105000
1!
1D
1f
b1 g
b111111 h
b111 i
b10000 l
b10000 n
b10000 o
#110000
0!
0D
#115000
1!
1D
1f
b1 g
b111111 h
b1000 i
b10000 l
b10000 n
b10000 o
#120000
0!
0D
#125000
1!
1D
1f
b1 g
b111111 h
b1001 i
b10000 l
b10000 n
b10000 o
#130000
0!
0D
#135000
1!
1D
1f
b1 g
b111111 h
b1010 i
b10000 l
b10000 n
b10000 o
#140000
0!
0D
#145000
1!
1D
1f
b1 g
b111111 h
b1011 i
b10000 l
b10000 n
b10000 o
#150000
0!
0D
#155000
1!
1D
1f
b1 g
b111111 h
b1100 i
b10000 l
b10000 n
b10000 o
#160000
0!
0D
#165000
1!
1D
1f
b1 g
b111111 h
b1101 i
b10000 l
b10000 n
b10000 o
#170000
0!
0D
#175000
1!
1D
1f
b1 g
b111111 h
b1110 i
b10000 l
b10000 n
b10000 o
#180000
0!
0D
#185000
1!
1D
1f
b1 g
b111111 h
b1111 i
b10000 l
b10000 n
b10000 o
#190000
0!
0D
#195000
1!
1D
1f
b1 g
b111111 h
b10000 i
b10000 l
b10000 n
b10000 o
#200000
0!
0D
#205000
1!
1D
1f
b1 g
b111111 h
b10001 i
b10000 l
b10000 n
b10000 o
#210000
0!
0D
#215000
1!
1D
1f
b1 g
b111111 h
b10010 i
b10000 l
b10000 n
b10000 o
#220000
0!
0D
#225000
1!
1D
1f
b1 g
b111111 h
b10011 i
b10000 l
b10000 n
b10000 o
#230000
0!
0D
#235000
1!
1D
1f
b1 g
b111111 h
b10100 i
b10000 l
b10000 n
b10000 o
#240000
0!
0D
#245000
1!
1D
1f
b1 g
b111111 h
b10101 i
b10000 l
b10000 n
b10000 o
#250000
0!
0D
#255000
1!
1D
1f
b1 g
b111111 h
b10110 i
b10000 l
b10000 n
b10000 o
#260000
0!
0D
#265000
1!
1D
1f
b1 g
b111111 h
b10111 i
b10000 l
b10000 n
b10000 o
#270000
0!
0D
#275000
1!
1D
1f
b1 g
b111111 h
b11000 i
b10000 l
b10000 n
b10000 o
#280000
0!
0D
#285000
1!
1D
1f
b1 g
b111111 h
b11001 i
b10000 l
b10000 n
b10000 o
#290000
0!
0D
#295000
1!
1D
1f
b1 g
b111111 h
b11010 i
b10000 l
b10000 n
b10000 o
#300000
0!
0D
#305000
1!
1D
1f
b1 g
b111111 h
b11011 i
b10000 l
b10000 n
b10000 o
#310000
0!
0D
#315000
1!
1D
1f
b1 g
b111111 h
b11100 i
b10000 l
b10000 n
b10000 o
#320000
0!
0D
#325000
1!
1D
1f
b1 g
b111111 h
b11101 i
b10000 l
b10000 n
b10000 o
#330000
0!
0D
#335000
1!
1D
1f
b1 g
b111111 h
b11110 i
b10000 l
b10000 n
b10000 o
#340000
0!
0D
#345000
1!
1D
1f
b1 g
b111111 h
b11111 i
b10000 l
b10000 n
b10000 o
#350000
0!
0D
#355000
1!
1D
1f
b1 g
b111111 h
b100000 i
b10000 l
b10000 n
b10000 o
#360000
0!
0D
#365000
1!
1D
1f
b1 g
b111111 h
b100001 i
b10000 l
b10000 n
b10000 o
#370000
0!
0D
#375000
1!
1D
1f
b1 g
b111111 h
b100010 i
b10000 l
b10000 n
b10000 o
#380000
0!
0D
#385000
1!
1D
1f
b1 g
b111111 h
b100011 i
b10000 l
b10000 n
b10000 o
#390000
0!
0D
#395000
1!
1D
1f
b1 g
b111111 h
b100100 i
b10000 l
b10000 n
b10000 o
#400000
0!
0D
#405000
1!
1D
1f
b1 g
b111111 h
b100101 i
b10000 l
b10000 n
b10000 o
#410000
0!
0D
#415000
1!
1D
1f
b1 g
b111111 h
b100110 i
b10000 l
b10000 n
b10000 o
#420000
0!
0D
#425000
1!
1D
1f
b1 g
b111111 h
b100111 i
b10000 l
b10000 n
b10000 o
#430000
0!
0D
#435000
1!
1D
1f
b1 g
b111111 h
b101000 i
b10000 l
b10000 n
b10000 o
#440000
0!
0D
#445000
1!
1D
1f
b1 g
b111111 h
b101001 i
b10000 l
b10000 n
b10000 o
#450000
0!
0D
#455000
1!
1D
1f
b1 g
b111111 h
b101010 i
b10000 l
b10000 n
b10000 o
#460000
0!
0D
#465000
1!
1D
1f
b1 g
b111111 h
b101011 i
b10000 l
b10000 n
b10000 o
#470000
0!
0D
#475000
1!
1D
1f
b1 g
b111111 h
b101100 i
b10000 l
b10000 n
b10000 o
#480000
0!
0D
#485000
1!
1D
1f
b1 g
b111111 h
b101101 i
b10000 l
b10000 n
b10000 o
#490000
0!
0D
#495000
1!
1D
1f
b1 g
b111111 h
b101110 i
b10000 l
b10000 n
b10000 o
#500000
0!
0D
#505000
1!
1D
1f
b1 g
b111111 h
b101111 i
b10000 l
b10000 n
b10000 o
#510000
0!
0D
#515000
1!
1D
1f
b1 g
b111111 h
b110000 i
b10000 l
b10000 n
b10000 o
#520000
0!
0D
#525000
1!
1D
1f
b1 g
b111111 h
b110001 i
b10000 l
b10000 n
b10000 o
#530000
0!
0D
#535000
1!
1D
1f
b1 g
b111111 h
b110010 i
b10000 l
b10000 n
b10000 o
#540000
0!
0D
#545000
1!
1D
1f
b1 g
b111111 h
b110011 i
b10000 l
b10000 n
b10000 o
#550000
0!
0D
#555000
1!
1D
1f
b1 g
b111111 h
b110100 i
b10000 l
b10000 n
b10000 o
#560000
0!
0D
#565000
1!
1D
1f
b1 g
b111111 h
b110101 i
b10000 l
b10000 n
b10000 o
#570000
0!
0D
#575000
1!
1D
1f
b1 g
b111111 h
b110110 i
b10000 l
b10000 n
b10000 o
#580000
0!
0D
#585000
1!
1D
1f
b1 g
b111111 h
b110111 i
b10000 l
b10000 n
b10000 o
#590000
0!
0D
#595000
1!
1D
1f
b1 g
b111111 h
b111000 i
b10000 l
b10000 n
b10000 o
#600000
0!
0D
#605000
1!
1D
1f
b1 g
b111111 h
b111001 i
b10000 l
b10000 n
b10000 o
#610000
0!
0D
#615000
1!
1D
1f
b1 g
b111111 h
b111010 i
b10000 l
b10000 n
b10000 o
#620000
0!
0D
#625000
1!
1D
1f
b1 g
b111111 h
b111011 i
b10000 l
b10000 n
b10000 o
#630000
0!
0D
#635000
1!
1D
1f
b1 g
b111111 h
b111100 i
b10000 l
b10000 n
b10000 o
#640000
0!
0D
#645000
1!
1D
1f
b1 g
b111111 h
b111101 i
b10000 l
b10000 n
b10000 o
#650000
0!
0D
#655000
1!
1D
1f
b1 g
b111111 h
b111110 i
b10000 l
b10000 n
b10000 o
#660000
0!
0D
#665000
1!
0C
1D
0f
b1 g
b111111 h
b111111 i
b10000 l
b10000 n
b10000 o
#670000
0!
0D
#675000
1!
1D
0f
b1 g
b111111 h
b1000000 i
b10000 l
b10000 n
b10000 o
#680000
0!
0D
#685000
1!
1D
0f
b1 g
b111111 h
b1000001 i
b10000 l
b10000 n
b10000 o
#690000
0!
0D
#695000
1!
1D
0f
b1 g
b111111 h
b1000010 i
b10000 l
b10000 n
b10000 o
#700000
0!
0D
#705000
1!
1D
0f
b1 g
b111111 h
b1000011 i
b10000 l
b10000 n
b10000 o
#710000
0!
0D
#715000
1!
1D
0f
b1 g
b111111 h
b1000100 i
b10000 l
b10000 n
b10000 o
#720000
0!
0D
#725000
1!
1D
0f
b1 g
b111111 h
b1000101 i
b10000 l
b10000 n
b10000 o
#730000
0!
0D
#735000
1!
1D
0f
b1 g
b111111 h
b1000110 i
b10000 l
b10000 n
b10000 o
#740000
0!
0D
#745000
1!
1D
0f
b1 g
b111111 h
b1000111 i
b10000 l
b10000 n
b10000 o
#750000
0!
0D
#755000
1!
1D
0f
b1 g
b111111 h
b1001000 i
b10000 l
b10000 n
b10000 o
#760000
0!
0D
#765000
1!
1D
0f
b1 g
b111111 h
b1001001 i
b10000 l
b10000 n
b10000 o
#770000
0!
0D
#775000
1!
1D
0f
b1 g
b111111 h
b1001010 i
b10000 l
b10000 n
b10000 o
#780000
0!
0D
#785000
1!
1D
0f
b1 g
b111111 h
b1001011 i
b10000 l
b10000 n
b10000 o
#790000
0!
0D
#795000
1!
1D
0f
b1 g
b111111 h
b1001100 i
b10000 l
b10000 n
b10000 o
#800000
0!
0D
#805000
1!
1D
0f
b1 g
b111111 h
b1001101 i
b10000 l
b10000 n
b10000 o
#810000
0!
0D
#815000
1!
1D
0f
b1 g
b111111 h
b1001110 i
b10000 l
b10000 n
b10000 o
#820000
0!
0D
#825000
1!
1D
0f
b1 g
b111111 h
b1001111 i
b10000 l
b10000 n
b10000 o
#830000
0!
0D
#835000
1!
1D
0f
b1 g
b111111 h
b1010000 i
b10000 l
b10000 n
b10000 o
#840000
0!
0D
#845000
1!
1D
0f
b1 g
b111111 h
b1010001 i
b10000 l
b10000 n
b10000 o
#850000
0!
0D
#855000
1!
1D
0f
b1 g
b111111 h
b1010010 i
b10000 l
b10000 n
b10000 o
#860000
0!
0D
#865000
1!
1D
0f
b1 g
b111111 h
b1010011 i
b10000 l
b10000 n
b10000 o
#870000
0!
0D
#875000
1!
1D
0f
b1 g
b111111 h
b1010100 i
b10000 l
b10000 n
b10000 o
#880000
0!
0D
#885000
1!
1D
0f
b1 g
b111111 h
b1010101 i
b10000 l
b10000 n
b10000 o
#890000
0!
0D
#895000
1!
1D
0f
b1 g
b111111 h
b1010110 i
b10000 l
b10000 n
b10000 o
#900000
0!
0D
#905000
1!
1D
0f
b1 g
b111111 h
b1010111 i
b10000 l
b10000 n
b10000 o
#910000
0!
0D
#915000
1!
1D
0f
b1 g
b111111 h
b1011000 i
b10000 l
b10000 n
b10000 o
#920000
0!
0D
#925000
1!
1D
0f
b1 g
b111111 h
b1011001 i
b10000 l
b10000 n
b10000 o
#930000
0!
0D
#935000
1!
1D
0f
b1 g
b111111 h
b1011010 i
b10000 l
b10000 n
b10000 o
#940000
0!
0D
#945000
1!
1D
0f
b1 g
b111111 h
b1011011 i
b10000 l
b10000 n
b10000 o
#950000
0!
0D
#955000
1!
1D
0f
b1 g
b111111 h
b1011100 i
b10000 l
b10000 n
b10000 o
#960000
0!
0D
#965000
1!
1D
0f
b1 g
b111111 h
b1011101 i
b10000 l
b10000 n
b10000 o
#970000
0!
0D
#975000
1!
1D
0f
b1 g
b111111 h
b1011110 i
b10000 l
b10000 n
b10000 o
#980000
0!
0D
#985000
1!
1D
0f
b1 g
b111111 h
b1011111 i
b10000 l
b10000 n
b10000 o
#990000
0!
0D
#995000
1!
1D
0f
b1 g
b111111 h
b1100000 i
b10000 l
b10000 n
b10000 o
#1000000
0!
0D
#1005000
1!
1D
0f
b1 g
b111111 h
b1100001 i
b10000 l
b10000 n
b10000 o
#1010000
0!
0D
#1015000
1!
1D
0f
b1 g
b111111 h
b1100010 i
b10000 l
b10000 n
b10000 o
#1020000
0!
0D
#1025000
1!
1D
0f
b1 g
b111111 h
b1100011 i
b10000 l
b10000 n
b10000 o
#1030000
0!
0D
#1035000
1!
1D
0f
b1 g
b111111 h
b1100100 i
b10000 l
b10000 n
b10000 o
#1040000
0!
0D
#1045000
1!
1D
0f
b1 g
b111111 h
b1100101 i
b10000 l
b10000 n
b10000 o
#1050000
0!
0D
#1055000
1!
1D
0f
b1 g
b111111 h
b1100110 i
b10000 l
b10000 n
b10000 o
#1060000
0!
0D
#1065000
1!
1D
0f
b1 g
b111111 h
b1100111 i
b10000 l
b10000 n
b10000 o
#1070000
0!
0D
#1075000
1!
1D
0f
b1 g
b111111 h
b1101000 i
b10000 l
b10000 n
b10000 o
#1080000
0!
0D
#1085000
1!
1D
0f
b1 g
b111111 h
b1101001 i
b10000 l
b10000 n
b10000 o
#1090000
0!
0D
#1095000
1!
1D
0f
b1 g
b111111 h
b1101010 i
b10000 l
b10000 n
b10000 o
#1100000
0!
0D
#1105000
1!
1D
0f
b1 g
b111111 h
b1101011 i
b10000 l
b10000 n
b10000 o
#1110000
0!
0D
#1115000
1!
1D
0f
b1 g
b111111 h
b1101100 i
b10000 l
b10000 n
b10000 o
#1120000
0!
0D
#1125000
1!
1D
0f
b1 g
b111111 h
b1101101 i
b10000 l
b10000 n
b10000 o
#1130000
0!
0D
#1135000
1!
1D
0f
b1 g
b111111 h
b1101110 i
b10000 l
b10000 n
b10000 o
#1140000
0!
0D
#1145000
1!
1D
0f
b1 g
b111111 h
b1101111 i
b10000 l
b10000 n
b10000 o
#1150000
0!
0D
#1155000
1!
1D
0f
b1 g
b111111 h
b1110000 i
b10000 l
b10000 n
b10000 o
#1160000
0!
0D
#1165000
1!
1D
0f
b1 g
b111111 h
b1110001 i
b10000 l
b10000 n
b10000 o
#1170000
0!
0D
#1175000
1!
1D
0f
b1 g
b111111 h
b1110010 i
b10000 l
b10000 n
b10000 o
#1180000
0!
0D
#1185000
1!
1D
0f
b1 g
b111111 h
b1110011 i
b10000 l
b10000 n
b10000 o
#1190000
0!
0D
#1195000
1!
1D
0f
b1 g
b111111 h
b1110100 i
b10000 l
b10000 n
b10000 o
#1200000
0!
0D
#1205000
1!
1D
0f
b1 g
b111111 h
b1110101 i
b10000 l
b10000 n
b10000 o
#1210000
0!
0D
#1215000
1!
1D
0f
b1 g
b111111 h
b1110110 i
b10000 l
b10000 n
b10000 o
#1220000
0!
0D
#1225000
1!
1D
0f
b1 g
b111111 h
b1110111 i
b10000 l
b10000 n
b10000 o
#1230000
0!
0D
#1235000
1!
1D
0f
b1 g
b111111 h
b1111000 i
b10000 l
b10000 n
b10000 o
#1240000
0!
0D
#1245000
1!
1D
0f
b1 g
b111111 h
b1111001 i
b10000 l
b10000 n
b10000 o
#1250000
0!
0D
#1255000
1!
1D
0f
b1 g
b111111 h
b1111010 i
b10000 l
b10000 n
b10000 o
#1260000
0!
0D
#1265000
1!
1D
0f
b1 g
b111111 h
b1111011 i
b10000 l
b10000 n
b10000 o
#1270000
0!
0D
#1275000
1!
1D
0f
b1 g
b111111 h
b1111100 i
b10000 l
b10000 n
b10000 o
#1280000
0!
0D
#1285000
1!
1D
0f
b1 g
b111111 h
b1111101 i
b10000 l
b10000 n
b10000 o
#1290000
0!
0D
#1295000
1!
1D
0f
b1 g
b111111 h
b1111110 i
b10000 l
b10000 n
b10000 o
#1300000
0!
0D
#1305000
1!
1D
0f
b1 g
b111111 h
b1111111 i
b10000 l
b10000 n
b10000 o
#1310000
0!
0D
#1315000
1!
1D
0f
b1 g
b111111 h
b10000000 i
b10000 l
b10000 n
b10000 o
#1320000
0!
0D
#1325000
1!
1D
0f
b1 g
b111111 h
b10000001 i
b10000 l
b10000 n
b10000 o
#1330000
0!
0D
#1335000
1!
1D
0f
b1 g
b111111 h
b10000010 i
b10000 l
b10000 n
b10000 o
#1340000
0!
0D
#1345000
1!
1D
0f
b1 g
b111111 h
b10000011 i
b10000 l
b10000 n
b10000 o
#1350000
0!
0D
#1355000
1!
1D
0f
b1 g
b111111 h
b10000100 i
b10000 l
b10000 n
b10000 o
#1360000
0!
0D
#1365000
1!
1D
0f
b1 g
b111111 h
b10000101 i
b10000 l
b10000 n
b10000 o
#1370000
0!
0D
#1375000
1!
1D
0f
b1 g
b111111 h
b10000110 i
b10000 l
b10000 n
b10000 o
#1380000
0!
0D
#1385000
1!
1D
0f
b1 g
b111111 h
b10000111 i
b10000 l
b10000 n
b10000 o
#1390000
0!
0D
#1395000
1!
1D
0f
b1 g
b111111 h
b10001000 i
b10000 l
b10000 n
b10000 o
#1400000
0!
0D
#1405000
1!
1D
0f
b1 g
b111111 h
b10001001 i
b10000 l
b10000 n
b10000 o
#1410000
0!
0D
#1415000
1!
1D
0f
b1 g
b111111 h
b10001010 i
b10000 l
b10000 n
b10000 o
#1420000
0!
0D
#1425000
1!
1D
0f
b1 g
b111111 h
b10001011 i
b10000 l
b10000 n
b10000 o
#1430000
0!
0D
#1435000
1!
1D
0f
b1 g
b111111 h
b10001100 i
b10000 l
b10000 n
b10000 o
#1440000
0!
0D
#1445000
1!
1D
0f
b1 g
b111111 h
b10001101 i
b10000 l
b10000 n
b10000 o
#1450000
0!
0D
#1455000
1!
1D
0f
b1 g
b111111 h
b10001110 i
b10000 l
b10000 n
b10000 o
#1460000
0!
0D
#1465000
1!
1D
0f
b1 g
b111111 h
b10001111 i
b10000 l
b10000 n
b10000 o
#1470000
0!
0D
#1475000
1!
1D
0f
b1 g
b111111 h
b10010000 i
b10000 l
b10000 n
b10000 o
#1480000
0!
0D
#1485000
1!
1D
0f
b1 g
b111111 h
b10010001 i
b10000 l
b10000 n
b10000 o
#1490000
0!
0D
#1495000
1!
1D
0f
b1 g
b111111 h
b10010010 i
b10000 l
b10000 n
b10000 o
#1500000
0!
0D
#1505000
1!
1D
0f
b1 g
b111111 h
b10010011 i
b10000 l
b10000 n
b10000 o
#1510000
0!
0D
#1515000
1!
1D
0f
b1 g
b111111 h
b10010100 i
b10000 l
b10000 n
b10000 o
#1520000
0!
0D
#1525000
1!
1D
0f
b1 g
b111111 h
b10010101 i
b10000 l
b10000 n
b10000 o
#1530000
0!
0D
#1535000
1!
1D
0f
b1 g
b111111 h
b10010110 i
b10000 l
b10000 n
b10000 o
#1540000
0!
0D
#1545000
1!
1D
0f
b1 g
b111111 h
b10010111 i
b10000 l
b10000 n
b10000 o
#1550000
0!
0D
#1555000
1!
1D
0f
b1 g
b111111 h
b10011000 i
b10000 l
b10000 n
b10000 o
#1560000
0!
0D
#1565000
1!
1D
0f
b1 g
b111111 h
b10011001 i
b10000 l
b10000 n
b10000 o
#1570000
0!
0D
#1575000
1!
1D
0f
b1 g
b111111 h
b10011010 i
b10000 l
b10000 n
b10000 o
#1580000
0!
0D
#1585000
1!
1D
0f
b1 g
b111111 h
b10011011 i
b10000 l
b10000 n
b10000 o
#1590000
0!
0D
#1595000
1!
1D
0f
b1 g
b111111 h
b10011100 i
b10000 l
b10000 n
b10000 o
#1600000
0!
0D
#1605000
1!
1D
0f
b1 g
b111111 h
b10011101 i
b10000 l
b10000 n
b10000 o
#1610000
0!
0D
#1615000
1!
1D
0f
b1 g
b111111 h
b10011110 i
b10000 l
b10000 n
b10000 o
#1620000
0!
0D
#1625000
1!
1D
0f
b1 g
b111111 h
b10011111 i
b10000 l
b10000 n
b10000 o
#1630000
0!
0D
#1635000
1!
1D
0f
b1 g
b111111 h
b10100000 i
b10000 l
b10000 n
b10000 o
#1640000
0!
0D
#1645000
1!
1D
0f
b1 g
b111111 h
b10100001 i
b10000 l
b10000 n
b10000 o
#1650000
0!
0D
#1655000
1!
1D
0f
b1 g
b111111 h
b10100010 i
b10000 l
b10000 n
b10000 o
#1660000
0!
0D
#1665000
1!
1D
0f
b1 g
b111111 h
b10100011 i
b10000 l
b10000 n
b10000 o
#1670000
0!
0D
#1675000
1!
1D
0f
b1 g
b111111 h
b10100100 i
b10000 l
b10000 n
b10000 o
#1680000
0!
0D
#1685000
1!
1D
0f
b1 g
b111111 h
b10100101 i
b10000 l
b10000 n
b10000 o
#1690000
0!
0D
#1695000
1!
1D
0f
b1 g
b111111 h
b10100110 i
b10000 l
b10000 n
b10000 o
#1700000
0!
0D
#1705000
1!
1D
0f
b1 g
b111111 h
b10100111 i
b10000 l
b10000 n
b10000 o
#1710000
0!
0D
#1715000
1!
1D
0f
b1 g
b111111 h
b10101000 i
b10000 l
b10000 n
b10000 o
#1720000
0!
0D
#1725000
1!
1D
0f
b1 g
b111111 h
b10101001 i
b10000 l
b10000 n
b10000 o
#1730000
0!
0D
#1735000
1!
1D
0f
b1 g
b111111 h
b10101010 i
b10000 l
b10000 n
b10000 o
#1740000
0!
0D
#1745000
1!
1D
0f
b1 g
b111111 h
b10101011 i
b10000 l
b10000 n
b10000 o
#1750000
0!
0D
#1755000
1!
1D
0f
b1 g
b111111 h
b10101100 i
b10000 l
b10000 n
b10000 o
#1760000
0!
0D
#1765000
1!
1D
0f
b1 g
b111111 h
b10101101 i
b10000 l
b10000 n
b10000 o
#1770000
0!
0D
#1775000
1!
1D
0f
b1 g
b111111 h
b10101110 i
b10000 l
b10000 n
b10000 o
#1780000
0!
0D
#1785000
1!
1D
0f
b1 g
b111111 h
b10101111 i
b10000 l
b10000 n
b10000 o
#1790000
0!
0D
#1795000
1!
1D
0f
b1 g
b111111 h
b10110000 i
b10000 l
b10000 n
b10000 o
#1800000
0!
0D
#1805000
1!
1D
0f
b1 g
b111111 h
b10110001 i
b10000 l
b10000 n
b10000 o
#1810000
0!
0D
#1815000
1!
1D
0f
b1 g
b111111 h
b10110010 i
b10000 l
b10000 n
b10000 o
#1820000
0!
0D
#1825000
1!
1D
0f
b1 g
b111111 h
b10110011 i
b10000 l
b10000 n
b10000 o
#1830000
0!
0D
#1835000
1!
1D
0f
b1 g
b111111 h
b10110100 i
b10000 l
b10000 n
b10000 o
#1840000
0!
0D
#1845000
1!
1D
0f
b1 g
b111111 h
b10110101 i
b10000 l
b10000 n
b10000 o
#1850000
0!
0D
#1855000
1!
1D
0f
b1 g
b111111 h
b10110110 i
b10000 l
b10000 n
b10000 o
#1860000
0!
0D
#1865000
1!
1D
0f
b1 g
b111111 h
b10110111 i
b10000 l
b10000 n
b10000 o
#1870000
0!
0D
#1875000
1!
1D
0f
b1 g
b111111 h
b10111000 i
b10000 l
b10000 n
b10000 o
#1880000
0!
0D
#1885000
1!
1D
0f
b1 g
b111111 h
b10111001 i
b10000 l
b10000 n
b10000 o
#1890000
0!
0D
#1895000
1!
1D
0f
b1 g
b111111 h
b10111010 i
b10000 l
b10000 n
b10000 o
#1900000
0!
0D
#1905000
1!
1D
0f
b1 g
b111111 h
b10111011 i
b10000 l
b10000 n
b10000 o
#1910000
0!
0D
#1915000
1!
1D
0f
b1 g
b111111 h
b10111100 i
b10000 l
b10000 n
b10000 o
#1920000
0!
0D
#1925000
1!
1D
0f
b1 g
b111111 h
b10111101 i
b10000 l
b10000 n
b10000 o
#1930000
0!
0D
#1935000
1!
1D
0f
b1 g
b111111 h
b10111110 i
b10000 l
b10000 n
b10000 o
#1940000
0!
0D
#1945000
1!
1D
0f
b1 g
b111111 h
b10111111 i
b10000 l
b10000 n
b10000 o
#1950000
0!
0D
#1955000
1!
1D
0f
b1 g
b111111 h
b11000000 i
b10000 l
b10000 n
b10000 o
#1960000
0!
0D
#1965000
1!
1D
0f
b1 g
b111111 h
b11000001 i
b10000 l
b10000 n
b10000 o
#1970000
0!
0D
#1975000
1!
1D
0f
b1 g
b111111 h
b11000010 i
b10000 l
b10000 n
b10000 o
#1980000
0!
0D
#1985000
1!
1D
0f
b1 g
b111111 h
b11000011 i
b10000 l
b10000 n
b10000 o
#1990000
0!
0D
#1995000
1!
1D
0f
b1 g
b111111 h
b11000100 i
b10000 l
b10000 n
b10000 o
#2000000
0!
0D
#2005000
1!
1D
0f
b1 g
b111111 h
b11000101 i
b10000 l
b10000 n
b10000 o
#2010000
0!
0D
#2015000
1!
1D
0f
b1 g
b111111 h
b11000110 i
b10000 l
b10000 n
b10000 o
#2020000
0!
0D
#2025000
1!
1D
0f
b1 g
b111111 h
b11000111 i
b10000 l
b10000 n
b10000 o
#2030000
0!
0D
#2035000
1!
1D
0f
b1 g
b111111 h
b11001000 i
b10000 l
b10000 n
b10000 o
#2040000
0!
0D
#2045000
1!
1D
0f
b1 g
b111111 h
b11001001 i
b10000 l
b10000 n
b10000 o
#2050000
0!
0D
#2055000
1!
1D
0f
b1 g
b111111 h
b11001010 i
b10000 l
b10000 n
b10000 o
#2060000
0!
0D
#2065000
1!
1D
0f
b1 g
b111111 h
b11001011 i
b10000 l
b10000 n
b10000 o
#2070000
0!
0D
#2075000
1!
1D
0f
b1 g
b111111 h
b11001100 i
b10000 l
b10000 n
b10000 o
#2080000
0!
0D
#2085000
1!
1D
0f
b1 g
b111111 h
b11001101 i
b10000 l
b10000 n
b10000 o
#2090000
0!
0D
#2095000
1!
1D
0f
b1 g
b111111 h
b11001110 i
b10000 l
b10000 n
b10000 o
#2100000
0!
0D
#2105000
1!
1D
0f
b1 g
b111111 h
b11001111 i
b10000 l
b10000 n
b10000 o
#2110000
0!
0D
#2115000
1!
1D
0f
b1 g
b111111 h
b11010000 i
b10000 l
b10000 n
b10000 o
#2120000
0!
0D
#2125000
1!
1D
0f
b1 g
b111111 h
b11010001 i
b10000 l
b10000 n
b10000 o
#2130000
0!
0D
